<?xml version="1.0" encoding="UTF-8" standalone="no"?>
<!-- Generator: Adobe Illustrator 19.1.0, SVG Export Plug-In . SVG Version: 6.00 Build 0)  -->

<svg
   xmlns:dc="http://purl.org/dc/elements/1.1/"
   xmlns:cc="http://creativecommons.org/ns#"
   xmlns:rdf="http://www.w3.org/1999/02/22-rdf-syntax-ns#"
   xmlns:svg="http://www.w3.org/2000/svg"
   xmlns="http://www.w3.org/2000/svg"
   xmlns:xlink="http://www.w3.org/1999/xlink"
   xmlns:sodipodi="http://sodipodi.sourceforge.net/DTD/sodipodi-0.dtd"
   xmlns:inkscape="http://www.inkscape.org/namespaces/inkscape"
   version="1.1"
   id="Layer_1"
   x="0px"
   y="0px"
   viewBox="0 0 2048 1024"
   xml:space="preserve"
   inkscape:version="0.91 r"
   width="100%"
   height="100%"
   sodipodi:docname="compass_arrow_map.svg"
   inkscape:export-filename="/home/anze/AndroidStudioProjects/TripkoAndroid/app/src/main/assets/gfx/compass_arrow_map.png"
   inkscape:export-xdpi="45"
   inkscape:export-ydpi="45"><metadata
     id="metadata25"><rdf:RDF><cc:Work
         rdf:about=""><dc:format>image/svg+xml</dc:format><dc:type
           rdf:resource="http://purl.org/dc/dcmitype/StillImage" /><dc:title></dc:title></cc:Work></rdf:RDF></metadata><defs
     id="defs23" /><sodipodi:namedview
     pagecolor="#ffffff"
     bordercolor="#666666"
     borderopacity="1"
     objecttolerance="10"
     gridtolerance="10"
     guidetolerance="10"
     inkscape:pageopacity="0"
     inkscape:pageshadow="2"
     inkscape:window-width="720"
     inkscape:window-height="421"
     id="namedview21"
     showgrid="false"
     inkscape:zoom="0.42140707"
     inkscape:cx="926.09305"
     inkscape:cy="274.75037"
     inkscape:window-x="2211"
     inkscape:window-y="346"
     inkscape:window-maximized="0"
     inkscape:current-layer="Layer_1" /><style
     type="text/css"
     id="style3">
	.st0{fill:#FFFFFF;}
	.st1{fill:#91DBF2;}
	.st2{fill:#E6E6E6;stroke:#E6E6E6;stroke-miterlimit:10;}
	.st3{fill:#333333;}
	.st4{filter:url(#Adobe_OpacityMaskFilter);}
	.st5{opacity:0.25;mask:url(#SVGID_1_);}
	.st6{opacity:0.5;}
	.st7{fill:#E6E6E6;}
	.st8{fill:none;stroke:#E6E6E6;stroke-miterlimit:10;}
	.st9{opacity:0.75;}
	.st10{fill:#1A1A1A;}
	.st11{fill:#00D392;}
	.st12{fill:#00AEEF;}
	.st13{fill:#D38D11;}
	.st14{fill:#E828A4;}
	.st15{fill:#FF4940;}
	.st16{fill:#93278F;}
</style><g
     id="g5"
     transform="matrix(3.4248563,0,0,3.4248576,-172.97126,-179.82124)"><g
       id="g7"><image
         style="overflow:visible;opacity:0.2"
         width="230"
         height="282"
         xlink:href="data:image/png;base64,iVBORw0KGgoAAAANSUhEUgAAAOYAAAEaCAYAAAAFTSttAAAACXBIWXMAAAsSAAALEgHS3X78AAAA GXRFWHRTb2Z0d2FyZQBBZG9iZSBJbWFnZVJlYWR5ccllPAAAE4hJREFUeNrsnQl308gSRtuRskAI y8DsG7z5/7/pMQskDIEEspgkjvWkN9XjSkfyqqVaut85fQgkxJLcV1X9Vbk1cqgPGpX8W8Zl6dcb iuJ6/0Yl72VW8ScCTNTC+7YVjJFAWIypGhlwAiZqJ0oWIKb52JaRyr8VAE5k3MiftwpQBJioQSgL GPfy8VDGg3wkAt9VPsb5uJQ/rwVQ4ARM1IC2FJQFiI/z8VU+nsnXOwJfAeSnfJzk4zQf5wLrDXDG oYRLENVNNAmg/CYfP+bjFxnF11/L93ZVajslnY1LKZcgGij9mrJIXw8EwJ/y8Ws+fhZIHwp8n/Nx JH/373EWDAekgInqhfKFRMcCyv9ItPxagXkuPzcvat4CJ6ksWh/KUQWUrwTKVyqFfZKPffnZHXfX pb2WcaMABUzARGtCmUjkexRA+Vs+XsrfXwiUD+RnffnEv7+3CszQoQVMwEQryDuwO5KiFs7r95K+ /hZEyscCpQbS/38nEE5UxKS2CZhozWipHdin+fhO1pI+fS2Mn28CKLdcdTeQX2NO1LglagImWh5K Xat8IgD+pNaVhQv7rQDroUxU+ls2nAJUg0nkBEy0ApR7Eg2/DqD8RVLaZ5Li7gTRcRSsUcMI6gG9 DQAFTsBEc6BM3ayBQJs9r2R9WUBZdPvsC5RJAKQL4PRAJm7WT6vXnTfurlMLnICJgugWlkV0pHzp Zg6sr1GmJVCGv3OkwExUZNWGEGUUwEQVAFWVRbTZ46HcU9FvtMTv3goip4+alFEAE1VoXllEQ+nL Intu5sCOVgB/VAImZRTARBXQzCuLeAe2rCwyWvF1nPp/YRlFrzWBEzAHD+UmZZFN0uZFZRTgBMzB Q7lOWWTd16xad+LUAiZQuvrKIpvAqc2gRKW2Nw6nFjAHCGXdZZFN0tmy1j2cWsAcJJRNlEU2hROn FjAHq6bLIuumtVVOLQ3vgDmIaNlGWWTT6EnDO2AOCsq2yyKrRk0a3gFzsFC2VRbZBE4a3gFzMFB2 URbZJJ2l4R0wew1l12WRdY+ZhnfA7DWUFsoidUROyiiA2QtZK4usu+akjAKYvYqWVssim0RPyiiA GTWUVssi60ZNyiiA2QsoyxzYl85GWWQTOCmjAGaUUC56jIGVssgm6SxlFMCMDsp5jzHwO6ZbKYus e46UUQAzGi3zGAOLZZE6IidlFMA0O1mXeYxB+GyR2KAM15zsGwSYpidpXxzYTaIn+wYBpkkorTam Nx012TcIME1CGUNjehtwsm8QYJpJ4WJqTG8jnWXfIMDsfCLG2JjeFpw4tYDZumJvTG86raXhHTA7 mXx9aUxvI3rS8A6YrUy4oZZFVo2aNLwDZutQDq0ssgmcNLwDZuNQDrksskk6S8M7YDY2wSiLrH/t aHgHzEYmFmWReiMnZRTA3EiURepdc1JGAcxaJhNlkeaiJ2UUwFxrAlEWaSZqUkYBzI2hpCzSHJyU UQBzZSgpi7STzlJGAcylJwxlkfauNWUUwFxqolAW6TZyUkYBzDuiLNLtmpN9gwCzdHJQFrETPdk3 CDApixiKmuwbBJj3oKQsYgdO9g0aMJiURWyns+wbNEAwKYvEAydO7UDApCwST1pLw/uAwKQsEmf0 HHzDe9LzN5qySFxRk4b3noNJWSRuOAff8J70GMo+Pd15iOnsoBvek56+sX18uvPQ4Bx0w3vSwze0 z093HnLkHFQZpU9gDuXpzkNbcw6y4T3p0Zs4pKc7DzV6DqbhPenJG4cD2++oObiG96RHUNKY3n84 B9PwnvQAShrTh5XODqLhPYn8jaIxfbhw9tqpTSJ+g2hMH25a2/uG9xjBpDEd9b7hPYnwDaExHSid 63nDexLZG0JZBIVw9rLhPYkQSsoiKExne9fwnkQEJWURVAVn7xrek0guPGWR9pTNSR1jiZzRl1GS CC54n8oi1id9VjJiALR3ZRTLYPapLJJVTHxLEz4LJrKPLNMK08V69Iy6jJIYvsB9KYtUTfgsmDwj A8d46+72nV6r6GIdzl6VURKjUPalLKKBLCb8lVrvTIOJ1PVk9xHlSz4uZIzleKclEck6nFGXURLD UMZcFsmC9KkA8jIf5zLhr+R7I2VWdBXtdbS8lmM8zcfHfHyS456oiVuVLlo2g6IroyQGoYy9LKKh 9FEynOxj+X6iov1Wh1HIg1lEy8/5eC/jWP7+Rb4fRiPrcEZbRkmMXcjYyyLhWs1P9A/5eCfjRGAd yTnsBuvjrsD0aeypHOdhPo7k2M+D9HurIsqPDMIZZRklNXQBE4mA+xIRvQP7SkH53P1TNtk1Gimn 6m48roByKmvjRLKCibvrfHZ9Q7mWdLs47rcC6wMB1qfhehJrN9winH5plMn19lnMFxllEXPSNaSp sYsXmj2/yvhBIqUvi1irVYbryQtJWY8l8rwRMD/Jed7KuWjXMzN0DsWEPZPjP5WbSBmYejJvqwzM Kpx+foVprD6fMKXNhghmldnzg5g8vygoD5zNWqVeT36RtK9YS/4tEecvAfNYvr8vptWVhTvzEnB+ kIl7JlmAN0tu1aT2JaudwGixAqYLMrLbBWOqMohO4EwNQJkqKF9ICvuzjO8NR8qsZCL71PVQgPxD /nwn39Mmy42zWUMri/5jFS0nCkq/RruRSLSv1v5W4fRdZFN3tyuoygyaDgnMEMoDWT96KH2ktNrV k5VESp/6FdHxdxl/CKTe8PFdTFahrFpzjkui5bVap31RafmjkpvoyAices5lgQnkz+NKnaff6Kv1 pUba0QUKe2CfC4i/itHzk6wznzh7XT1VzuuxpK6v8/FfAfOtRNAL+T/7BtPXZW8+YTubn8zjAEzL plAZnPPOJQuuQ9ZXMJdxYC3XKqucVw/l7wLla/n7sUTSG3UjiumT9GHn0mSJiGndFFrk1OqIqd+r VrOctMOLEjqwL93MgbVYFpnnvL6VtNWnsG8UlL7LZ8fFu51iFqy5wra26wBa66bQKk6tvgatZTtp RxejzIH1Zs9zZ+8jXIuc1z+V0XMo6avumBm5+J9GlQXRcFoCYiym0CKnNoz6rZdR0pahjM2BXdZ5 /VMA/VuAPXcz5zWT8+jDw278OZStv6aRmUJVTm3ZObVeRklbhNJHSt9uF9YqrTmwqzivfj35yd0t K0xd/+Qn4zRwLKcRmkJhwHDq3Doto6Qtn/hjBaXv6rHowK7qvPpm73HJRBz1FM6sJGrGaArpwFFm eJWZQo2XUdKGT7isLOIfuW7VgV3Hef2sUtdod//e0BDLIjaFzJVR0hagjKkxfV3nNezkGQKU4TXL IjeFTJVR0hZOMpbG9E2c18lAoeybKWSmjJI2fHKxNKZXmTzLOq/TgQLZN1PITBklbQjKWMoiVeWQ VZ3XoUPZJ1PIRBklbQDKWMoiZeUQDeVrt7zzivplCnVeRkkbOhHrZZF55RAN5Wtl8gzVeR2qKdRp GSWt6QRiKousUg4pg3IKlIMxhToro6Q1QhlDWWSdcsjQnNes5nOM3RTqZN+gtMaDtl4WWbUcUlWj tDj5mzJu6jrG2E2h1vcNSms6WMtlkToa0acNTlArG3Flrnz/m7qjZ4ymUOv7BqUbQmm9LFJXI3oW 0eTf5BrpZ5eEXS51w7mpKdT2ZtOt7huUbgCl9bJInY3obU7+Lndir0orswZery5TyLUMZyv7BqUb HpjVsojFRvS2J/+6NwxtxDQVNVc1hcYla7m9jtadrTi16YoHFENZxFoj+jqTvwtjrIubxqqmkN4U rMt1Z+MN7+kaUFoui1huRLcYMbtYY65qCl272eML9dddNyM02vCebnAQlsoilpxXq5PfujFVZQrp R7RbakZotOE9XRFKi2URS85rjK7svLSy7eMKTaHQ9bxSa04LzQiNNbynS0JptSxiyXmNZfKvcoxd vX5oCul155Wz1YzQSMN7ukKktFYWiXkLEItAOoM3h9GcdaelZoTaG97TFSOllbIIW4AMB9BYPqFS axklXeDAWiyLsAXI8OB0Lo5PqNTW8J7OgdJaWcS684raXXda/YRKLQ3vZRHTYlkkFucVtWucWfyE yrIN77oMdKvO5V7E1Dny7hyzp+2ySGzOK2rPX7D6CZWqMsqtOtYrleLqdef/52pakcI+khT2O4mW P7luyiJsvoxiNYXmNbxfyRLrs2R+l+qGci9i+l+iU9gfBcowfd1uEUqcVxSrKRTCOZVjKEA8kTl7 LF9fyM/ei5h+bVk8ivxZPr4VMH2tss2yCM4r6ospFC4R9yXAPRWmHpVE8JH+wGlo+ryQqPlCfslD tXhu6g6D84r6aAp5vhJ5rV25KezJ0vFeWh2aP0lA9ZOSRXMbUOK8or6ZQmUNBUu15IVU78jYlp9L GkxfcV5RX02hrMQvGUuWd+nKu4Hu1THDk5m65vs6cV5R300hvTQ7F7Pno4zQG3Ha/HHu/ifsL2WM FQBpQ1DivKI+mkI6E7yW+e1NzKN8vJf5Pg79kbTCcDmT/3AiRD9Rd5JRTaEe5xX13RTSy7MiyJ2q +X2ofJJxEDH/jYAakksVtYpfUvTEHtQY4nFe0RBMIR0ttWdyJPP6nczrCzmGadUaMwtAKcLsMxkF mA/dzNpdd09PnFc0FFNIp7Bl0fJ9xfqyNGLeCgBnEsGO5OAO1MJYNxiseqA4r2gIplDVM1ePFJSn btaKd29ZFpo5YT78Tg7qQEZZaB+tcMfCeUV9N4XCIKe9k8NgaXZVFXDSijuK/oX7AuVjgfTBiikt zisaiimkf59OYd8LlO9c+RPk7qms/FEWgh8JmAcC6rIpLc4rGoIppAGdlng1h8rw8Sns3EwwnRPq fd3lRA7kkVprVrlVo5I7B84r6rMppOEsS2G9C3tUEi0rg066Qo68KKVN3N3tEXBe0RBMIf30sTCg vZM5/mZOtHTLgrlMSlv8+bDCqQqhxHldvNZB8ZhCYxVAJhKsdoWBSbCu9FAelRg+2TpgLpPS+trm toqWW+rkxipS4rzONx8AND5TSK9F94Wlicx5DeXhsobPshFzUUqrmw62BFp/1xgHa0qc17tvvtXH JKDlH3Dk9+u5kCxyR37u1M2Mzb8khfU7FFwvO9eXaUovS2n31TrT76G5L2Belxg9/iCH7Lxaf3gt WmwKTRSk+pMiTyWdvRUwD4PM8MzNqVmuA2ZVSrunzJ+RvOiBfP1FIuu7IJzjvNp9FB9abApN3f1P YPlA9UTAnLq7JZKCgU+rpLCrRMyydr1tN6tj3sjBPBIwLxWYRwLkBzds5zWGh9ei5UyhKlN0R77n PwRyItHzwpV8ELoOMMOUdiwvvKUO5IOsN50c8In820c5uHNHzysRM+6bqn7AUdic7ksmmZu1nPrd Ca7cGh5CuuKdw9/tL9zsaUXnctfYlZ+5ln87c7PtE3yUHLLJYf3htWj5dad2ay/crGSoGZmo5drK gShd8cBc4Fb5hvcTN3sE2cTd3WGaiXcfTlzZfqw7JwKk7n7T69G153y64YH5u0biZk29U3e3nUmn aEw86ph9WnfqP0fB9zea82kNd41bd/cTJmGBFiAXA4riBdSvP7OS762ttKa7xmjOQSM0FEhrU1rT AQEgQjVqi0uAEGAihAATIcBECAEmQoCJEAJMhAATIQSYCCHARAgwEUKAiRBgIoQAEyHARAgBJrIq dlUATGQUSPYhAkxkCEp27gNMZAxK9roFTGQQTnaHB0xUsbazEC0XPU8FAeZggMwMAErEBEygdHbM FtaYgImMgoArC5jIaOpIHRMwiZbOrtkCkIBJxHSYLQgwWWMiwESL4cRsQYBpFE7MFgSYxgFFCDAR AkyEEGAiBJgIIcBECDARQoCJEAJMhAATIQSYCAEmQggwEQJMhBBgIoQAEyHARAgBJkKAiRACTIQA EyEEmAghwEQIMBFCgBmH2FsWAaZRINmNHQGmISh5fgkCTGNQ8sQvBJgG4eQZmQgwDUdLa0+VRoBJ xCRiIsBkjYkAEy0BJ64sAkyjcFLHRIBpHFCEABMhwEQIASZCgIkQAkyEABMhBJgIIcBECDARQoCJ EGAihAATIcBECAEm6kZ8ygUwkVEg+VwoYCJDULKTAmAiY1Cy9xBgIoNwslsfYCLD0ZL9bQETETER YCLWmICJIoQTVxYw0RxAso5fmzomYCJjUAAkYCLSSASYdqHEeEGAaRBOShUIMA1HS4r7CDCJmAgw EWtMBJgRwokriwDTKJwU9xFgGgcUIcBECDARQoCJEGAihAATIcBECAEmQoCJEAJMhBBgIgSYCCHA RAgwEULtKeUSmFDm2v0IWNuvhwAzWij9bgbhKDRq4DXLXoudEwATubu7GPjtRfzGXHvyM0mDYI7d bBMwvbUJcAImUAoUBSBn+fiUj1P5mS8tgHkqr3kmf78GTsAcuqZutn1lAcdxPt7K9z5L1GwSTP+6 b+W1P7nZFppT3h7AHPK6soDgIh8f8/FGQXmQj133j3PeBJjFa19JpDyW1/4ox3LDerNbjbgEnV77 Ihpu5+NhPp7m46t8PM/HY/m3bTcraY1qhFJH60u5EXwQME/l3/R6EwHmoK69hvNBPvYFyOLrHZXG NhExw/XtpUTLscMEAkyu/79wpgLotoqUWw2+Rz6d9ZHTjwlQAiaawbkVjFEL708WADplbQmY6P77 MAq+bkNZAKkDSsBEdt4TYDSk/wkwABZlI9l0KRXtAAAAAElFTkSuQmCC"
         transform="translate(85,61)"
         id="image9" /><g
         id="g11"><path
           class="st0"
           d="M 307.5,191.4 202.5,67.8 c -0.9,-1 -2.5,-1 -3.4,0 L 92.2,193.2 c -1,1.2 -1.1,3 -0.3,4.3 l 9.3,14 c 1.1,1.7 3.5,2.1 5.1,0.9 l 72.8,-62.6 5.6,185 c 0,1.1 0.9,1.8 2,1.8 l 26.7,-0.2 c 1.1,0 2,-0.7 2,-1.9 l 3,-186.2 75.2,62.4 c 1.7,1.2 4,0.8 5.1,-0.9 l 9.1,-14.2 c 0.8,-1.3 0.7,-3 -0.3,-4.2 z"
           id="path13"
           inkscape:connector-curvature="0"
           style="fill:#ffffff" /></g></g><g
       class="st6"
       id="g15"
       style="opacity:0.5"><path
         class="st7"
         d="m 200.9,67 c -0.6,0 -1.3,0.3 -1.7,0.8 l -107,125.4 c -1,1.2 -1.1,3 -0.3,4.3 l 9.3,14 c 1.1,1.7 3.5,2.1 5.1,0.9 l 72.8,-62.6 5.6,185 c 0,1.1 0.9,1.8 2,1.8 l 13.2,-0.1 1,-269.5 z"
         id="path17"
         inkscape:connector-curvature="0"
         style="fill:#e6e6e6" /><path
         class="st8"
         d="m 200.9,67 c -0.6,0 -1.3,0.3 -1.7,0.8 l -107,125.4 c -1,1.2 -1.1,3 -0.3,4.3 l 9.3,14 c 1.1,1.7 3.5,2.1 5.1,0.9 l 72.8,-62.6 5.6,185 c 0,1.1 0.9,1.8 2,1.8 l 13.2,-0.1 1,-269.5 z"
         id="path19"
         inkscape:connector-curvature="0"
         style="fill:none;stroke:#e6e6e6;stroke-miterlimit:10" /></g></g><image
     y="0"
     x="1024"
     id="image3048"
     xlink:href="data:image/png;base64,iVBORw0KGgoAAAANSUhEUgAABAAAAAQACAYAAAB/HSuDAAAABHNCSVQICAgIfAhkiAAAIABJREFU eJzs3Xu4bGldH/jfu6pq32/nfu0+p5s7RKHtiM2luQjIzUYQQQFRAogSySRjnMmFzPNkTMY4GS+5 DMmjMyOJMZkZHybRGCHGJN4DZkZ5Rk3CJBEiJiAtCaBNX87eVe/80X1O16696rL3rqq1Vu3P53k2 u2pV1Xp/p/mj9u+73vW+EQAAAAAAAAAAAAAAAAAAAAAAAAAAAAAAwHSkqgsAAGbuMN/3eWZVAACV EgAAwGKaxne8MAAAFogAAAAWy7S/24UAALAgBAAAsDiGfa9P+n0/qtkXBABAwwkAAGAxlH2nH/V7 vqzZFwAAQMMJAACg+cY1/0edASAIAIAFIgAAgGYb/C4f1vhP8p2fSx4LAQBgQQgAAKC5hjX/ZY3/ uO/8cc3/JLMDAIAaEwAAQDONa/6H/R5msOkfFwIIAACgYQQAANA8h2n+R80KiDjY1OchjwffW/Yc AKixdtUFAADHMq7pL3s8+Plx2/+lgd+TfhYAqBEBAAA0y6jZe4NX+ft/ouR37ns+OBNg2CwBTT8A NJQAAACaa9j0/mE/Ze+NGL/S/6j3CQQAoCGKqgsAAKZiVON/86d41rOe1f61z3zhh37+/gc/+S/u /+KH/9FP//T1ePTvgf6fsuAgojxEAAAawhc4ADRL2dX+/scpypv4IiLiw//xv3zPRx9uv7sVObo5 4s6Nzu++4tLaU+LxRf9yRPQGng/+RBy8ZQAAqDkzAACgOYat5D9sqv9gIFB8IVpveGL7kbizvRuX W3vx7x/Yvfh9P/S3L5acw0UCAFgw1gAAgMVTFgKkiEidXm9zNxXxid123MiPvu3qlzzrKRHxmSGf v2nYgoEAQEOYAQAAzTV4lX7sOgA5cruX41bzHxGxtLZ2teS9g+cfth4AANAQAgAAaLZhW/wNCQHy ge/+9vLqpTjY+B9mwT9hAAA0gAAAAJph1NX3Yc1//+O0sbFR9Hr5QLOe2p3zUX7136r/ALBABAAA sLj2Xf3/o3/qvzubSlr53G6fHXzvwDnKzgsANIwAAAAWw6ip/xER6el3ffmd5cv3FadHfL7s/IPH AIAGEAAAwOJLERGbZ89ci4iIvD8F6KW00/++cecBAJpJAAAAi2PY2gAREWltc+Nq2Yf2Utos+eyo 8wIADSQAAIDFdGAxv3Zr6ULZG3MU6wPvNc0fABaQAAAAmm/Ulf9bx4pO+3zZh/dyrE14DgCgwQQA ANBMZVfro+T5La12e6fs+F4USyPGAAAWhAAAAE6KVGyXHb6Rc2fepQAA8ycAAICTokibEREp7b+w v9vLrUrqAQDmSgAAAItr4BaBvFb2pke6Od39/OevHHz/gXMBAA0mAACAxZciIrrdWCl7MUfE69/6 9kuD7wcAFosAAABOhpSKNGyxv7h851OuDr5/yOOh5z9SVQDA3AgAAOCEyBHtYa+tnNq5POQljT0A LAgBAACcEL08/Ht/aXX9Ysnhsi0G05DXAICaEwAAwGI62KDnXDz6Kx94qd1eOh+jFwEcfW4AoPYE AABwArzytV+/nnNv6OtpaelM/9Mov/pf+tFjlgYAzIkAAABOgFd8/TdcT6N69dQ6VXY0Jp8VcPP9 AEBNCQAAYDGMbL4vXr16bdTr3YidOHzDDwA0iAAAAE6A1c2twW3+9ukVxebAobIQQDAAAA0mAACA xZdWVlYujXpDN6f1ODgDIA05FiWPAYCaEwAAwAnQ6iydv/k4pYN9ezfS6sChUc29xh8AGkgAAACL 58BV+qJonR71gd2clmP8DABX/wGgwQQAAHACpHaxPer13Yj24EeGnWrCYwBAzQgAAGBxDDbit57n HFujPnijm1sxfAbAcWoAAGpCAAAAJ0JaH/XqjV5Oz7rnnqUYvtifhQABoOEEAADQLOMa7tIp+jli ZdSHckS89q1/5OZWgZPOAND8A0CDCAAAYDHta85ziqXHn+TSD1y548lXYvxV/rLXAYAGEAAAwGJ7 tFHvpc64N66dOnV532fKbwMAABpKAAAAi+dAA99LuTXuQyvrmxdGnWPCMQGAmhIAAED9Hbe5TpHH n6NoL50bMpadAABgAQgAAKD50sBP9P9+2l13LeWcxwcAS0tnBj87YjwAoGEEAADQbGNX6X/7e/7E 5Yk69qJ9quS8w34DAA0jAACA5jnUFfqLV6/fue/FVP6xXBRbI84JADScAAAAmmnYvfoHrthvnjp7 2yQn7EbaGnHuUccBgAYQAABAc4xqzAe37Lv1e2l1+fKBT5TopWJtwvEAgAYSAABAvY1rwgdfPzAD YGl59dwkA+1FrB6xBgCgAQQAANBc/c1+6fT/iIiilc5OcrK9XCyHZh8AFpYAAACaZdIZAbdCgdTu 7PS/Iedc+sHdnDuHGAcAaBgBAAA0T9nV/hh+LG1OctIbPX8XAMAi80UPAM0w6or8sOn/jz4u0vok A9zo5fRlz3nO8lELBADqTQAAAM01bgHAiIiUcxpc3b9UjohXv+mtl6ZRGABQPwIAAGi20oX/on8G QIqJr+pfuf7Eq1OrDACoFQEAADTfsBAgIiL1cnRiQutnzpoBAAALSgAAAPU17r7/cZ9NEREpRWvf C2n4R9fWty9McG4AoIEEAACwGMqu/kdERO7lib/v0/LyuSHnBQAaTgAAAM2RonzF/2Hvi52dnVYv 54mb+Fanc/pYFQIAtSUAAIBmS0MeR0Skr3/Xu86myJOfrWgLAABgQQkAAKD5hoYAz7znxXccZhZ/ ryi2plUUAFAvAgAAqL8j34d/5vz5Q23rl1OxedSxAIB6EwAAwGIonQWwtrlxZfCNecQtAd1I69Mt CwCoCwEAACywpc7yhcO8fy9iZVa1AADVEgAAwAJrLS2dOcz793KxPKtaAIBqCQAAYDGliIiiKE4d 5kO7OXdmUw4AUDUBAAAsslb7UKv63+j52wAAFpUveQBYZCk2DvP2G72cvvz5z3cbAAAsIAEAACyO g9sF5rR24E1p+K6COSLue/M339w54MjbDwIA9SMAAIAFlop06Kv5F+944oGtA0MYAACNJwAAgAWW Iw69qN/22XOXJnibQAAAGkYAAAALLEe0D/uZzvL6hQnfKgQAgAYRAADAAuv1eq3Dfqa1snIuJm/u hQAA0BACAABYaCNW/Bv2iXb7zOChvt8pDjb9QgAAaAABAAAsqPve9M3bOfcOvpDz6A+m1qn+Z1Mt CgCojAAAABbUi175qmvpCP17N6Xtxx4e9sPCAgCoMQEAACyoq9ev336Uz+VUbMbxp/kLAwCgZgQA ALCg1ra2rxzlc91I631P++/5H3wMADSIAAAAFlS7s3TpKJ/bi1h57OGwJl8IAAANJAAAgAXVWV4+ e5TP7eViOfY392Ur//e/FiNeBwBqQgAAAAuqaHVOjX/XQTdy7jz2cLDxTzF8K0AAoOYEAACwqFLs HOVju70oYvIZADHmNQCgJgQAALCoUmvjKB+70cvpOS960UoMnwHQ//zAqEcZEwCYPQEAACyookhr R/lcjoiXfu0bb+4gUDblf9JbAIQBAFAjAgAAWFA5YvWon739SU+/HAcb+HFX/DX8AFBjAgAAWCy3 mvCc89JRT7J+audy3/n6r/gPa/g1/wBQcwIAAFhQOVL7qJ9dWt64EMNnAEyyFgAAUDMCAABovtJG vRe5ddQTtlZWzvWda9gMAACgQQQAANBMZYvz7Xs9RTpys55a7TMl55501X8hAQDUkAAAAOrpsE30 vvd/+fOfv5x7vSM34rnVOjXi/GYDAEADCQAAoHmGXvW/+eAN3/T22441QKu91XfO49zvLyQAgJoQ AABAs4xrqFNExJU7nnTtOIN0I22OGUtjDwANIwAAgGYYddX/wL36K9vbtx9nsG4q1g5RAwDQAAIA AGiOwan4Q5+vrW1cPM5A3RyrI8YGABpIAAAA9XPce+5Ta2np/HEK2M1puf98JWMAAA0jAACA5im7 8r+vKW+1WmeOM8BeSu3jfB4AqB8BAAA0S/8WfGVX5h+dAdBq7xxnkBvdXJScf1xNAECNCQAAoP7G rcZ/IAzoptg8zoA3ejn94ec9b+UQHxECAEDNCQAAoBn6m/zB34PvSa1UrI860Tg5Ir7qa994+Ygf BwBqSAAAAM00ch2A3sFV/A/t9qc848pxzwEA1IcAAADqq+xq+7gV+VNEpJxiOY5p8/SZY20lCADU iwAAAJqn7FaAfTMAchx/Ff+l1fULxz0HAFAfAgAAaKaR6wDkiGMHAO2VtXPHPQcAUB8CAACot8F7 /cteO7gTQM7HXqyvaLXPHPccAEB9CAAAoF6G3fc/6or/vucXLlxo5zh+ABDtzs6xzwEA1IYAAACa Z//V/oEQ4Ove/q4L0/iC76W0PYXTAAA1IQAAgHo67BX8W7cBPP3Zz72e8/EL6KVi4/hnAQDqQgAA AM1VGhKcPXP2tmmcvJuKtWmcBwCoBwEAADTbgRBgdXPz0jRO3M2xOo3zAAD1IAAAgAWzvLp2fhrn 2YtiaRrnAQDqQQAAAM00uAjgreetpels37cb0ZnGeQCAehAAAEBzjFsYMD36P8WpaQz2SDf7OwEA FogvdgBolrEhQNFqb05joBu9nF7wspdZBwAAFoQAAACaZ3QIkNLUtu/7yte88cq0zgUAVEsAAACL JqWpXbW/+qQnX57WuQCAagkAAGDBpJSWp3Wu9Z0dAQAALAgBAAAsmL1ud2rb9y2vb/ZvKThu/QEA oMYEAACwYIqi1ZrauZaWzw15KcXA9oMhIACAWhMAAMCC6eXe9AKAonPmkB8RAgBATQkAAGDB9Hp5 ak14brd3HnuosQeAhhMAAMACefO3/NHTaYqtek5pOzT/ALAQBAAAsEC+/MUvvB55eufrRtosOTxJ ICA0AICaEQAAwAI5f+m2q+Pec5jOvJeK9WOUAwDUiAAAABbI5vb2lWmebzfHSt/TwVX/J2U2AADU gAAAABZIe3XtwjTPtxdpOcob/xTlWwECADUlAACABbLU7pyb5vn2IrVLDpc1/EIAAKg5AQAALJCi 1dkZ/67JPbzXa/U9HXe1Pw38BgBqRAAAAAukaLW2p3m+3Rzxkle9aj32N/Wm/wNAAwkAAGCRpGJj 2qe895Wvu3zz7DF++r9AAABqSgAAAAskF2lt2ue8/IQnXonhMwD6jw0SBgBAjQgAAGCB5F5eGf+u w9k8ffpSDJ/yP+nVf2EAAFRMAAAACyUvT/uM7ZW1iwOHXP0HgAYSAADAAskpyrbtO5b26vrZGD/t 3zoAAFBzAgAAaK4DjXYvp6l/txdF+0zJuMO2/NP8A0BNCQAAYJHkPPa7Ped8uFMW6VSMngHg3n8A aAABAAAsiBe9/DWrOfemft7cbm8NHBo2A0CzDwA1JgAAgAXxyje88VqaQQ/ey2kzDrcGAABQQwIA AGi2W433bXfccfssBuilYm3SGqb0PgBgBgQAALAgtk6dujqL897o5dW+p2UzAQCABhAAAEB9HKup bq+sXppWIf26qViK4U2/XQAAoCEEAADQDONW2k+tpc6FiU6UDtej70VqH+oDAEAtCQAAoP4mufIe 7Vb71CwGf3iv1xry0rCr/24TAIAaEgAAQH2Vrbo/bAu+SEVrZxZF7OaIF7z01YMLAZbVBQDUmAAA AOrnMM30rff2IjZnUEtERLzovvsuz+rcAMB8CAAAoB6OcwU9RUQqita47fqO7MKdT7gyMB4A0DAC AABohrL77fcdyzlWY0Z2zp67ucOA5h8AGkoAAAD1N2pxvVvHepGXJzlZjnzoApZX18+H5h8AGk0A AAD1NK7ZPjgDIIqZbddXLK+endW5AYD5EAAAQL0Nrvg/dAZAzr3ZBQCt9plZnRsAmA8BAADUV9l9 //2PR70+3ULanZlsMQgAzI8AAADqpayJHxsEXLt2rZNznlkA0GsVW7M6NwAwHwIAAKjeYRr30gUB 3/ztf+LyLFfo60WxMcPTAwBzIAAAgHoru/f/wIyAJzzjadcmPmE6fFTQi7R+6A8BALUiAACA+hnV oZfOADh95uLtsyxoN8fKLM8PAMyeAAAA6qnsiv/QGQDtlbXLsyxmL9LyLM8PAMyeAAAAmqFsIcBb xzrLS+dmOfhuTjPbYhAAmA8BAADUxyQ355cGAZ320pkZ1HPLjV5uzfL8AMDsCQAAoHkOBAVFqzg1 ywFv9HK8+BWvWZvlGADAbAkAAKBa4676pxGPb90GkFrtybfpy3nit/b7yq957ZUjfRAAqAUBAADU 3/iQIKXJA4AjunDHnQIAAGgwAQAANMOwHQAiIiKntDrrArbOnLk46zEAgNkRAADAYpj5Nn2dpdUL sx4DAJgdAQAALICcozPrMYqVtbOzHgMAmB0BAAA0z8HbAFK0Zz1oq90p22pwkq0LAYAaEAAAwALI vTzxd3pKR+vZe2m2Ww0CALMlAACAhltZWUm9nGd/Jb7V2pr5GADAzAgAAKCZbjX8X/eObzuTIs98 wF6kzSN+1G0CAFADAgAAaK4UEfGce198fR499l6ktbLxAYBmEAAAQMOduXTptnmMs5djdR7jAACz IQAAgIZb39q4Mo9x9iIt9T119R8AGkYAAAAN1+qsXDjM+3M+2noBuzm149HGf7D5TwM/owgOAKAi AgAAaLj20tLZeYxzo5dbJYfLGnpNPgDUkAAAABpuaamzM49xbvRyvOyrX9+/EKBGHwAaRAAAAA3X i2J7XmO96L7XXI3DTfUXEgBATQgAAKDhiqJYn9dYF+648+rAoVH3/2v+AaBGBAAA0HC9yIcKAFI6 el++uX3qUoxe8G/YyYUBAFAxAQAANF6xPK+R2mtr5wcOlYUBdgIAgBoSAABA06VYmtdQ7ZXVczF6 yr97/wGgpgQAANBwOUd7boOl1pnBIzF+UUBhAADUgAAAABouR57b93lutU7F+EX/+n9r/gGgJgQA ANBwOc/v+zynYqvv6WHv/xcGAECFBAAA0GBfdd/rN3PuHe5DOR95vF6kzZhsyz/NPgDUjAAAABrs pa9/w+1pjr12tyjW+p4OzgCwACAA1JgAAAAa7Mrtt1+f53h7vViJye7/BwBqRgAAAM1xoLne3Nm+ Ms8C9iINbjk4aqE/6wEAQI0IAACgwYql5UvzHG83p5tbDk6yDgAAUCMCAACor7EN9erq2tl5FHLT jV5uRXldo24JsB0gANSAAAAA6mfiafUpFacPffJ09F78Ri/HC1766rWBw2YCAEADCAAAoF7Kmunh gUAqdmZd0KCvfN3X3hbD69L8A0BNCQAAoHluNdmpSBvzHvzynXdeHvLSJM2/gAAAKiIAAIB6OGxj nCIipVSsz6KYUTa2T12c95gAwPEJAACgOkdp+vfpRVqZUi0TW9rYPD/vMQGA4xMAAEB9pZLH+++7 T7E0z4IiIlpLy+fmPSYAcHwCAACop/KGf//rKefoHPbEOR+nrIhUtMt2HnBvPwDUnAAAAOpjXBN9 IAzIkVuzK2eITmfuOw8AAMcnAACA+hm2FeDg8xSR5n7lPadia95jAgDHJwAAgHopa/RLnz/5S75k qdfrzj0A6EXanPeYAMDxCQAAoJ7KZgH0P05vfse3Xk0V3HrfjWJt7oMCAMcmAACAapSt8D/sfYML AqaIiGtPetq12ZQ22l7E3LceBACOTwAAAPUwbMu/stcjItLG6dO3zbakcruR5r71IABwfAIAAKiP YTMBSmcArG9uXjrqQPkYewHu9g6/9SAAUD0BAADUy+DV/7LZABERqdXqXJhPSfvtZn8/AEAT+QIH gPoqCwFuzQBod5ZOV1HUjV6Or7rv9etVjA0AHJ0AAACqVTbtf5JjKbVbOzOoZyL33veaq1WNDQAc jQAAAOrtwPZ/fU83513MTZfvuPNyVWMDAEcjAACA+Ru17d8k70kRkVKRKpuGv7axfeQFCAGAaggA AKC+hi0AGBEROYrVI584TZJBDNdZX69kAUIA4OgEAADQDAc79hTLFdQRERHtpeWzVY0NAByNAAAA mmPfGgA5R6eyQjrLlexAAAAcnQAAAOpt2I4AKadozbuYm3JRnKpqbADgaAQAANBQuder7Hs8p2Kr qrEBgKMRAABAvUy0Ot/KysrAloDzlYvWRt/TyuoAACYnAACA+pi4kX7Lu/+r88fqunM+zqdjrxc3 tyDU/ANAQwgAAKCBnvXcF1w7Zg9/LHsRK6H5B4BGEQAAQP0daLTPXDx/exWF3LQbaanK8QGAwxMA AEADba5vX65y/N3e0C0IzQoAgJoSAABAA7VXly9UOf5uHvk3ROr7AQBqQgAAAA3U6SydrnL8G70c r3nDN24MHD5swy8gAIA5EgAAQBMVxanjfDyl4/fez3v1q6/2n3LYUMceCACYCgEAADRQqyi2q67h 0vU7LsdkU/2FAABQAwIAAGigXBTrVdewvLFVthDhqEBAEAAAFRIAAEAT5bRWdQmdldX+hQgHG/+y 5wBAhQQAANBAqZWWq66h1e6ci6Ot9i8YAIAKCAAAoIF63dypuobcPrATQdn2fxp8AKgJAQAANFGR 2sf5eM75+DW0WqeivOmPgWNCAACoAQEAADRQ7vVaVdcQqdgaPBLjbwkQBgBARQQAANBAvZwqb6S7 qdiI0TMABn9XXjMAnGQCAABomNd/87dspzSFKfzH1N2/E4H7/wGg5gQAANAwL3jVq69F9f1/7EWs xOir/8OeDzsGAMyQAAAAGub8pUu3V11DRMRe3rcV4eAMAAsAAkDNCAAAoGE2N7evHvccaQpLCNzI uR2T3f8PANSAAAAAmuFWM91e6lyqspCbbuTU/3fEsBkAUfJcMAAAFRAAAEA9DDbIQ1fNby+tnJlL RWPs9nK8+nVfvxWTrwEw7N8kEACAORAAAED1DtUAp1b79KwKOaznvvLVVwYOlQUZAEANCAAAoDlS REQqiu2qC7np3NWrV2LMjIURhAMAMEcCAABollSkYrPqIm5aP3Xm4pCXNPcAUDMCAACoziRN8oH3 5BRrxx86H/8UEbG8tn6+5LDmHwBqSAAAAE2T0nLVJdzUXlo+W3UNAMBkBAAAUH/7rqjnnGsTAOT2 Uv+ChIPrAJgJAAA1IgAAgPka1xSnKF9U79axHKk9o9oOLbXaOzcfjnvrrGsBAEYTAABAfZQ1yQeO 9SK35lDLRHopbYfmHwAaQQAAANVKA7+HvSc9/iTVpqHupWJjzFtqUysAnHQCAACop8FbACIi0t3P fe5Kr9c9dlOdppQh9KJYncqJAICZEwAAQPXK7vUffJ4iIl7zlnfcnmp0UX0vhQAAABpCAAAA1Rh3 v3/pDIDbnnD9+swqOoK9XlqqugYAYDICAACYn0kv3Q+dAbC9c+bqtIs6jhs512ZHAgBgNAEAAFRn sNEfduzW85X1zYuzLelwbuTkbwkAaAhf2gBQrWENf38gcOuns7x8fl6FTWK3l+O+179ps+o6AIDx BAAAUL0DV/qHHI+iaJ2ZxoA552mcJiIi7nn5K2t1WwIAUE4AAADzN2otgMHmf98MgFartTPLwo7i /O13XK66BgBgPAEAANTDuPUAIiIip6jddPuNUzuXqq4BABhPAAAA9TFsa8BbuwAUrdbaXCuawPLa Wq3WJQAAygkAAGA+DrsFYGkYkHOsTqme6Wkvna26BABgPAEAANTXrSv/N/UiliuqZaj20srpqmsA AMYTAABA9YbtAtD/PEVEypHaUxkwTTohYQJF/RYmBAAOEgAAQIPknKcSAExTN6XtqmsAAMYTAABA NfYt7hfjZwHcPDjFS/fT0Y20UXUNAMB4AgAAqI/Be/73NfsXLlxo5ci1CwB6qajdzgQAwEECAABo iK9717dfiFx1FQftRayUHK5dUAEAJ50AAAAa4ulf9uXXq66hzF4vLVVdAwAwngAAAOrt1pX0s+fP 3T61s+bpTSW4UcOFCQGAgwQAAFB/KSJifWPrYtWFlLmRk78nAKABfGEDQDOkVqdzoeoiyuz2crzu re/c6jvk/n8AqCEBAAA0RLuzdKbqGoa59+Uvv63qGgCA0QQAANAQRbu1U3UNw5y6dPXyYw+PevXf rAEAmDEBAAA0RFG0tsa/qxprm1uXYnwTnyZ4DwAwIwIAAGiIlIr1qmsYZmlt7XzJ4VHNviAAAOZM AAAADZFTWq26hmGKzvLZgUOp7/fglX/NPwBUQAAAAE1RpOWqSxgmtTs3Fyg87DR/YQAAzIkAAAAa oreXl6quYaiitRMHm/nDNvfCAACYIQEAADREaqVW1TUM09u/QGH/LABT/wGgJgQAANAQvV6vtgHA Xs6bMXz6/7BAAACYIwEAADREr5dr2zx3U7HW97Rs4b8YeD1GvA4AzIAAAAAa4E3vfPepFLnqMobq RqxEedPv6j8A1IQAAAAa4Lkveen1OvfPu73Uv0DhJFv/1fcfAwALSgAAAA1w+uLV26uuYZTdiHaM nwEQJa8POwYATJkAAAAaYHN760rVNYxyo3frb4oU49cAGEUYAAAzIgAAgAZYWl65UHUNo+z2cnzN W962U/JS//3/tgYEgAoJAACgATpLS2errmGc5730q65E+QyAYQ2/5h8A5kgAAAD1c7AxbrVOV1DH oZy6eKXsNoWyGQARmn8AmDsBAAA0QKvV3qq6hnE2Tp++eZvCqBkAAEBFBAAA0AC9HJtV1zBOZ2X1 Qhy92RcSAMCMCQAAYL6O1uimWJtyHVPXWlo+V3LYTgAAUBMCAACop31NcFG0lqsqZGLt9s11Csq2 AXT/PwBUTAAAAPV1q1Hu5l7tA4DUWtqO8c295h8AKiIAAIDZm6QpLrtq/vhrKbVnUdg05aIYtlCh xQABoAYEAADQADnX/zu7m1LtFyoEgJOs9n9MAMCCK7sqfnAmQM61v3rejWK15HDt6waAk0IAAADz N+mU+BQR6TkvevlqL/dq30h3I1aqrgEAGE4AAAD1UbYGQLzqzW++nhq+vVJ2AAAgAElEQVRwIX23 l5aqrgEAGE4AAADzM2pbvLLnKSLi2p1PuDb70o5vN6L2CxUCwEkmAACA2TrMtniluwBsnjp123RL mo0bvQN/V9R/2gIAnCACAACozrgZASkiYmlp+eI8izqq3V6Or3nL27Yfe6r5B4CaEQAAwHwNW/V/ 2OtpaXnl3Azrmapnf+VLr1ZdAwBQTgAAAPPXP9W/rPnvnwGQWu326TnWdiwXr16/XHUNAEA5AQAA 1MNg89/3SrEzq8GmbXVnuxG3KwDASSQAAID5GDX1f9hsgEd/irQxy8KmaXlt/ULVNQAA5QQAAFAP Q2cApFSsz7+coynanbNV1wAAlBMAAEC1Rq0HkCIi5YjVuVd1RKmz1Jj1CgDgpBEAAEC9HLhVIKdY qqKQo0itzvb4dwEAVRAAAMDsjFpr78B2fwOPH58ZkIv2dMuanVy0tqquAQAoJwAAgPnZ39iPDgFu HevlXmMCgL0UjVmwEABOGgEAAFRr7I58KaVZ7do3dd2c1qquAQAoJwAAgOoNnf5//rbb2r1etzkB QMRK1TUAAOUEAAAwe0dt4NMf+fY/fikd+ePzt9tLjVmwEABOGgEAANRDaZf/hKc87Y55F3IcuxGN Wa8AAE4aAQAA1NjmmYu3VV3DYTzSjWJ1ddXfFwBQQ76gAaDGNrY2Ls3mzLO5rWAv5/jat75jZyYn BwCORQAAAPVxoCtfWlo5V0Uhx/HMe19wpeoaAICDBAAAUGPt5c7pqms4rAtXbr9ccrg5KxkCwIIS AABAjaVUnKq6hsNa2d6+OMHbBAIAMGcCAACos1RsVl3CYS2trp2f8K1CAACYIwEAANRYahXrVddw WEW7c3bg0KhGXwgAAHMiAACAOkvFatUlHFbqDF23IPX9DB4HAGZMAAAANZZzXq66hsPK0epft0Bz DwA1IQAAgFpLnaorOKxe0dqK8iv94wgLAGCGBAAAUGO9FO2qazisbo6NgUPCAACoAQEAANRY7vUa 913dK4q1xx4ONv79zzX4ADBnjfujAgBOmMY1ynsRKzHZyv+N+7cBQJMJAACgpt7xHd9xdnYdcp7Z mXe7sdT3dNjK//2vx4jXAYApEQAAQE3ddc+Lr+fZ9ekzsxvRjuHb/Y0LBACAGREAAEBNnb104faq aziKR7pRrK6u9l/ZH9fwCwMAYA4EAABQU6tbW1eqruEo9nKO177lbadi+AyA/ueDhAEAMCMCAACo qdWVtfNV13BUz7z3hVdi+JT/SW8BEAYAwBQJAACgpopW+2zVNRzVucu3XS05PO6Kv4YfAGZIAAAA NZWK4vTMzp1m22tvnDp1IcpnAAxr+DX/ADBjAgAAqJdbjXDRam9WWchxtJdWym5fGFwYcPA4ADBD AgAAqJ9HG+JUbFRcx5EVy8tnY/wMAABgjgQAAFBPKae8VnURR5Xa7TNlh49xDAA4JgEAANRVTitV l3BUqehs33wYw6f8a/QBYI4EAABQvdJGOEdemnch07IXsR3TubovJACAKREAAEA1yq6MD76lPavB c86zOvWjitb6mHdo7AFgzgQAADAbx77SnSM39nu6G6ls/QJNPwBUqLF/WABAgw1rhPcdz7m539O7 ETfXL5hgpgMAMA+N/cMCABpqXCOcIiJe8YZv3IiY8TT9GdrrpU5MGHQAAPMhAACA+RjV9A6+ll56 333XG9z/x27EzNYvAACORgAAAPMzuBVe/9T4fSHApWvXrs2rqFl4pJuLlZWVSa/0mxEAAHMgAACA 6Svb837Sz6WISJub21emW9LAQGm2PfdejnjtW9526hAfEQIAwIwJAABg/g5M+R881l7qXJpfObPx ZS94UVmIodEHgIoIAABgvvqn/A82/reOLa2snZ13YdN25vJtjQ8xAGCRCAAAYPYmWfl/33tS0Toz u3LmY217+2LVNQAAjxMAAMD8DC74N3QGQCrS9jwLm4WllbXzVdcAADxOAAAA81F233//4/2vF63N WRc0a63l5cbfxgAAi0QAAACzUzb1f5IgIKWItZlVFRGR80xPHxER7fbp2Q8CAExKAAAA1Rl2K0Dk iJX5lzNdqeg0/jYGAFgkAgAAmL/+hr90BkBOaWnuVU1ZNxVbVdcAADxOAAAAszXY4Je9dnAXgByd WRY1DzmljaprAAAeJwAAgOkad9//RGsAdCO3pl3YvO1Fmu06BgDAoQgAAGA+Rq/6f+DNaeTrTbCX m7+OAQAsEgEAAFQv9f9cfcITOr1ed6YBQJpDvtCNovG3MQDAIhEAAMBsTNJhl77nG7/tPbeniT5e b4/k3K66BgDgcQIAAKjWgU7/+pOedq2KQqbtRjcXq6urzU8yAGBBCAAAoGZOnTt7peoapmEvR7zp ne8+XXUdAMCjBAAAUI2hiwJubJ66OP9yZuMZ9zx3IcIMAFgEAgAAmJ9x0+FTRERnqXNuDrXMxamL Vy5XXQMA8CgBAADM19gQILVbZ2ZdRM551kNERMT69vbCzGYAgKYTAADA/I0MAdrtzs68Cpm1peW1 831PLQgIABUSAABA3eTYqrqEaSmWl84OeSnFwNoHISAAgJkSAABAzeRWsVZ1DVNTtA+7C4AQAABm RAAAALWTVquuYFpyq33zdgaNPQBUTAAAAHWT0nLVJUxLLlpbofkHgFoQAABAzeQcnVmPkdJ8evKc io2y4Sf4qNAAAKZMAAAANZNzblVdw7TsRSzOegYA0HACAAComRx5Yb6fd3t5pe/p4Kr/kzIbAACm YGH+wACARbCzs1PEAjW83Sg6Ud74pyjfChAAmBEBAADUyJu/7Y+di1x1FdPzSM7tksNlDb8QAABm TAAAADXy9D98zx1V1zBNN7q5WF1dvdncj7vanwZ+AwBTJAAAgBq5cOnSbfMYJ+f5TDPYyxFveue7 z8T+pt70fwCogAAAAGpkZX39ctU1TNvTnv28q489HNbwD4YDAMAMCAAAoEbay8sXqq5h2s5evnw5 hs8A6D82SBgAAFMkAACAGmm3O2eqrmHa1ra3L8bwKf+TXv0XBgDAMQkAAKBGWq3WqaprmLbOytrg rAZX/wGgAgIAAKiRXLS2qq5h2lpLyzcXARzV+FsHAABmTAAAADWSimJ9LuOkOfbYqRi8raE/CBh1 SwAAMEUCAACokRRpteoapi23l7Zj9AwA9/4DwBwIAACgTopYqbqEaeulNHhbw7AZAJp9AJghAQAA VOdAw5t7uVNFIbOUU7ERh1sDAACYAQEAANRJSu2qS5i2bhp7W8Okzb+QAACOQQAAADXS6+VW1TVM 224v99/WUDYTAACYAwEAANRIznk+jXHOcxkmImI3p6UY3vTbBQAA5kQAAADVutXwvu6t79yKmF9j Pi+7EQs3qwEAmkgAAAA18aKvfsUdi3gB/JFuLlZWVg5z9d9tAgAwAwIAAJieYzWsFy7cfm1ahdRJ N0e86R3fdnrg8OAOAJp9AJgxAQAAzMeoBjdFRFrZ3Lw6r2Lm7elf8fwrVdcAACedAAAAZm+S6e+x vLp6YQ61VOLM5cuX+5662g8AFRAAAMDsDE5tH7y3fV8j3FnqnJ1TXXO3vr198bGHmn8AqIgAAACq dashbrU6g/fJL4zO6vq50PwDQKUEAAAwHYNX+g/72RQRO9Mrp16KzuLObgCAphAAAEA1Dqx8n1qt 9YpqmblUtBd2dgMANIUAAADmI0X5/va3jvUiL2wA0Gu1FnZ2AwA0hQAAAGZj3C0BB2cARLEy04oq lFudzaprAICTTgAAALM12PwPnQGQU16aW1Vz1ou0UXUNAHDSCQAAYHbKGv1hzyNyas+hpkp0I9aq rgEATjoBAADMXtksgP7HKSJSN+fW/Eqar70olquuAQBOOgEAABzfYbYATH2/B9YAOPT2gY2x21vc 2xsAoCkEAAAwW2UN/4EZAE995jNXe7m3uAFAxMLObgCAphAAAMD0jWrkS2cAfO03fcttaXEnAMQj 3Vysrq4u7j8QABpAAAAAs1F2W8DQGQBPeMpTr8+jqKp0c8Q3fut7TlddBwCcZAIAAJidUWsD7JsB cPrcuatzqahCT/3Dz1n4fyMA1JkAAACmZ5Ip7qVBQHt59eIM6qmVM5cvX666BgA4yQQAADB/B4KC pZXlc1UUMk+r29uXqq4BAE4yAQAAHM+k2/6VHb/1WquztPD3x3eWVxc+5ACAOhMAAMDslS3+1/9a SkWxM8d6KlEsL5+tugYAOMkEAAAwH6NCgCiKYmOOtUSqYEO+VLTKZjnYGhAA5kQAAAA1kIpiveoa Zq5oLfwsBwCoMwEAANRAzrFadQ2z1i3am1XXAAAnmQAAAObvwLT3XsRyFYXMUy/SUW9zcJsAAEyB AAAA6iCndtUlzFo3Ym3gkMYeAOZIAAAANZAjL3wAsBfFws9yAIA6EwAAQB2kKtbln6/dXl7qe7rw /14AqBsBAABU41YDvLOzU/R63YVviHcjWvHov3vw35oGfkZZ+P9OADArAgAAqE6KiHjbd/y3l9IJ 6Gsf6eZidXW1rPkftPj/MQCgAgIAAKjY07/srmtV1zAP3Rzxje/5r8/2HdLoA8AcCQAAoGKnts7f XnUN8/KMu++5Goeb6i8kAIApEQAAQMVWd3YuVl3DvJy6dOnKwKFR9/9r/gFgigQAAFCxzlLnQtU1 zMvKxsbFGL3g37CmXxgAAMckAACAihWt1tnx71oMS8ur5wcOlYUBdgIAgBkQAABAxVrt9k7VNcxL Wl4+E6On/Lv3HwBmRAAAAFVLaavqEuYlFa3Tg4di/KKAwgAAmAIBAABUrCha61XXMDdFayfGL/rX /1vzDwBTIgAAgIrllFarrmFeuqnVP9vhsPf/CwMA4BgEAABQsZzzStU1zEsvFesx2ZZ/mn0AmDIB AABUruhUXcG87EWs9T0dnAFgAUAAmCEBAABUrYhW1SXMy15OKzHZ/f8AwJQJAACgWqnb7Z6gACAG ZzuMWujPegAAMEUCAACo3olpZm/kW7MdJlkHAACYIgEAAFToTe/+46er6Hqr6rRv9HKxvb1dNuNh 1C0BtgMEgCkQAADA/BxoYp/7gq+8nnMVpVSjmyNe+83vPD1w2EwAAJgDAQAAVOj81au3VV3DvD3z K553NYZf2df8A8CMCAAAYHbGNrNrm2tX51FInexcvHR5yEuTNP8CAgA4IgEAAMzGRI3q8sr6hVkX Ujcrm5sXq64BAE4iAQAATNfgtPbBqe77goHUKs7Nqa7aWF5dP3H/ZgCoAwEAAMzfrRCgKIpTVRZS hdby8tmqawCAk0gAAADTcdh701NEpKK9tD2LYuostTploYd7+wFgxgQAADA/ZU3uxtyrqFgvpZ2q awCAk0gAAABHN+6q9eBaADd/3zqei1ibdlG1V3Q2qy4BAE4iAQAAzFbZXve3jqdoLc+5nsp1Uzpx sx4AoA4EAAAwPWVX/Adf33c8597STCuqoW5Kq1XXAAAnkQAAAKar7Ir/0K0Bc6TOvArrl3OuYtiI iNjtxcrAIQsAAsAcCAAA4PiGNbBDG/+bB3LkE/ddvJejP/TQ/APAnJy4PzoAYEoOuwBgaRjQ6528 AOBGjlYMXxuhn3AAAKboxP3RAQAzMm7F/8Fj6fkvedVqOoEt7o1eLnZ2dob9DVIWlgxzAv/rAcDR CQAA4PCGLfY37vG+5vZlX/d1d0R1t+JXppsjXve2bzlddR0AcNIIAABgusqm/g8+johIdzzxibfP raqa+ZJ77r2t5LAr+gAwQwIAAJi+ssb/wPOtU6evVlDbo0VUfO/B2cuXLw0cmmQhRQEBAByDAAAA Dmfc1P5hrx94X2tpebAJPjGWV9cvxuj/ZoM0/wBwTAIAAJi+wUCg7CeWlpfPVlVg1VorKxdKDg+b NTHsfYOPAYARBAAAMLmyZnPYLICRzX9EpHarc2IXwmsvL5957GHZLRL9xj0HACYkAACAo5lk9f/+ 5weCgNQqdmZXXs0VrdMxfsHEUTMCzAIAgEMSAADA0U3SwJZe/Y+IlIpiY0511k+7vR2jG/3DLvwn BACAMdpVFwAADTHq6vO4xr8of5zWZ1zzUDnnqLJn7uXW1mMPJ7pdouQUN/8BebaVAsDiMAMAAMab ZOX/cY3/gZ9exMo8iq+jXlGsx+HWTRh1a8XgMQCghAAAAEYb1vwPe9/kDW1KS7MouAm6Ka3G4Zv/ SWYGCAEAYAgBAAAczagr/sXA4/LZADl15l92Pez2YiWG/7ebaAZF3+mGzQ4AAPoIAABguKNM/S9r YA80t//9T/zca2/kk7sWzyM5lre2tlox5r9TDA8DouQxADCCAAAAyk0y9X+SIGDf7+Xl5eKHfu0T f/FLv/RL/3I7eie2aX1gL7d++KOf+Pvnrl7txPD/Xv0/o6b/Ww8AACYgAACAg0Y1j8Oa/bKGdd/v c1fv7Pyvv/E7P3bp1OY3bKTeDMsfL6Xq++P/1Ot8yft+6V/9wiu/4ZtOx/BbKA6zPsCg6v+RAFAj raoLAIAamnTq/7Cr1a3Bx09/3os3/9KP/8w/ObuUnrpUg7b0c71WdGvQHz/QSxvPfsVXf+P126/9 s4/89D/6bN9Lo7b3GxfQTPpeADhRfCkCwH7DpvnffDzsHv/Sxj8iimfc+5LNP/e3PvDzp1vds3WZ evdbe514JNfnz4CVIrpf/He//p7veMXzfyoiuhHRe+yn//HNn9z3++bj6HsecTBAGBUoAMCJUJe/ QwCgDkZdPS5bfG7w6v+BYOAZL3nl5p//kQ/8wpnWXm2a/zp6uBet5Sd+6d/4H3/ql14d5bdUTLoe QIw4BgAnmlsAAOBx05r634qIYvvChc73/+TP/txW7F0oanDPfb+63ALQrxeR1s5dfOUz7rr7l375 J37s07H/qv3gFfzDFl+vfywAVEAAAACPGrWq/KiV/fun/e8LAf7eb/z2h7ZSvrNuzX9EPQOAiIhu juL89Se8fvP0mZ/4zZ/7J184wily2BoQAEqZjQgAow3be75s2v+tn7//sd/5axtFPK22HWiu7y3x D/ei87K3vuvvP/X5z1+PyXcGuEnzDwBDCAAAoNykW9Ad2Pbv73zkN79lZWXta3zJHt0f9OLcd77/ J39y5+L1Thz8bzxJKHDTsMcAcOL42wQAhi/2N3hssNk8sPDfn/2rP/ikMxcvvbdj0flj+2K0nvyX f/oXvzuGN/+jGv9hhAAAnFgCAABOulFXi0dN/T+wEODq6mrrha974z/oRPb9OiUPr2296U//H//o OTFZ8z8sEND0A0AIAABgnHHT/2/9/snf/A/vL3p721UVuohypLjzy+99/x966au3onwHhknXBIgx xwBg4QkAADjJJt32b2zz/0M/8cEX9tqdF+stp++hXlr/E3/9h/9qlM8A6H8ccfD/xxg4DgAnlgAA AB43bC2Akc3/6upq64l33/M3U+41pslMNdyacJQvtldf9l0//s+/MiZbA0DzDwAlBAAAMHoRwJHN f0QUH/zN3/q+Xre3OadaT6zLX3r3X9m5dKkdJf8fxOGDAKEAACeOAACAk6pspf/B52NvA3jbu95z qttZ+dps0f+Z+2I3nfruf/Cz3x6jb8kYtiOAhh+AE69VdQEAUJFRK/4fWOF/4Kd18/H7/sEH/8/d Xr48r6Kn5XO9Vuw1sCdur28++z//zsff/x8/9q9uRNzaa3HY7zJmAQBwYpkBAMBJN+xK8birzMVf /mt/445HIt01r0KJuJGj823/ww98d4xeB8D2fwBQQgAAwEk0rjEctQDgrZ/nve6Nf7Pby5rMOXto eeO+pzzvxRsx/haNGHEMAE4cX4AAnETDtowrW+ivf8p/6+bj733f++6866u/4Rd6uf4BQHdvL377 334sPv3bvxWf+Z1PxsMPfDH+80MPRy9SLK1vxOrO6Th9251x9glPiZ0rt1dd7kQ2H/zcj7z9mdf+ bER0I6JX8vvmT+77ffMnYv9tAlZwAOBEqP0fLQAwZWX3gJcFAGX3/N8KAH7pk/d/4KFecc+8ij6s B77w+fiX//RD8f/+8i/EJ//d/xc3Hnl4os+tnToTl5/+rHjSi14R17/iBVG06rlc0ForPfTfPO/J T/v8pz+9G482/cMCgMEQIGJ/EBAhAADghBAAAHDSDNvyr+zKf2kAcPfdd69+34//k3+72821u5Xu 0//hE/HBv/vD8eu//POxt7d3rHOt7pyOP/Sq18czX/eWWF7bmFKF07P0nz/1F959z1N/MIYHAN0o nwEgAADgRBIAAHDSDAsA9i3wF/ub/30BwM9+7BN/bm9l89vmVvEEHnzg9+P/+sG/Hr/yMx+K3OtN 9dwrW9vxFW99dzzjla+PlOrzp8OpVv70N925/ewoDwD6gwC3AQBAWAQQgJNr2HZwYxeTa29sf/1c KpzQx371X8Z3vf1N8ZGf/qmpN/8REQ///hfi59/3PfHjf/pd8eDn/8vUz39Un++mS1//p7/rUhx9 McB+9Uk2AGBGBAAAnCSTrP7f//hA8/gX/+r7rj+y1zs1i+KO4qf/978df+PP/cn4g89/buZjfeo3 Pxo/9sfeEr/7sV+f+ViTyBHx6re+/U/G+ABg2P/vmn4AThQBAAAn2agFAWPgeYqIuPfVX/Nn6jBX POccf++vfE/8w/f/YHS73bmN+8X/8nvxD9/77fGJD//c3MYcpbuy+fIYv9XfqBAAAE4MAQAAJ92o q8MHm8rltefNpaox/tb3/Pn45Q/+w0rG3n34ofjHf+lPxcd/+Z9XMn6/3++lnff8wN98Yuxfw2HY 1f9JZgUAwMISAADAwavGpVeR3/CWt2zvdnvb8yur3Id+9Ifj//nZn6m0hl63G//sB/58fPbj/7bS OiIinvNV933TYw/dBgAAIwgAADiJRjV9ZSFAioj0LX/mu95R9fT/f/1//0p88O++v+IqHnXjoQfj g3/hO+LGgw9UW8jqxr0x/jaAsueDhAEALDQBAAA8ath6ALesbG6/fH7lHHTj4Yfj7/7Ad0dvjvf8 j/MH9/9u/NIPfl+lNTyQi2sx2er/EeX/PwPAiSAAAIDHDdseLkVE6hbF9fmWs9+P/y//c3z+s79X ZQmlPvbPfyr+02/8amXjP9yLzp96/wee1XdoVBgQA8cA4MQQAABwUkza8JVe/b98+XIrR6xNt6TJ fe7+z8Qv/+OfrGr4kXKvF7/yI++rtIY/dNfdXx3lV/6j7/kwwgAATgQBAAAMd+sK8v/0Iz/2sm63 V1mj+FN/53+Lvd3dqoYf69P/+tfjk7/6Lyobv72+/iUxeuX//uejCAMAWFgCAACYYLG4s1due8Gc ajngxsMPx6/9wj+raviJ/eZPfaCysXutpdseezhuC8AITT4AJ5QAAICT6lDbw3VW154+84qG+JV/ +o/jkYceqmr4iX3yVz8cD//BFyoZ+5HUOhPlQY4r/gDwGAEAADxqZCOYU7o8r0IG/cZHfrGqoQ+l u7cb/+EjP1/J2A9288r2hdvbMfzq/+BjCwECcOIIAADgccMbx5Q25l5NRPS63fj4v/qNKoY+kt/5 6L+sZNxujvT6d//RspBGww8AjxEAAMAEcqSVKsb93U/+djz0xQeqGPpI7v/3/6aysZ/01Kdd6nt6 2IZfOADAwhMAAMBoKSIi59yuYvBPfeK3qhj2yP7g/k9Hr9utZOyt02dOR3njr7kHgBAAAMAkUkSu pIn8vU/9ThXDHll390Y88NnPVDL22ub2mSmdSmAAwEKq5GoGADRNihQ58tzHffCBP5j7mMfV++Lv x3Jx5dbzldZ8+unldnt9LgMBQEMJAABgAnfvdPYiojPrcYq0//LzP803Zj3k1L1scy+ec+f810z8 8Kc+9/G5DwoADSIAAIAJtFL0qhi305l55jB1S0tLlYzb7XbnP0UDABrEGgAAMIGc814V466trVUx 7LFsbW1VMu7e3t4jUzqVIAGAhSQAAIAJVBUAnD17tophjyylFBcvXqxk7IceeuiReLR5H2zgJ2no Nf0ALDwBAABM5qEqBr3zzjurGPbITp8+HZubm5WM/alPfepzfU+PGgQAwMISAADAeLnX632hioGf /OQnR1E05+v6+vXrlY39kY985PdKDueB34PHAeDEaM5fFAAwH6WNYq/X+3wFtcTOzk6lTfVhPfvZ z65k3Jzz3o/+6I9+IR6/8t8/A6D//9NhjwFg4QkAAOBxQ68S7+3tfWbOtdxy9913VzX0ob3whS+s ZNzd3d3/+PDDD5ft1FDW5AsBADiRBAAAMIEHHnjg31U19ute97qqhj6Ua9euxV133VXJ2I888sjH H3tYNgMgSp4PIxAAYGEJAAA4qUZNEz/w/P777/838yiqzJOf/ORGLAb4qle9qrKxH3zwwY/HZI3/ uBkBALCwBAAAMIEPfOADv5ZSqqxRfPvb317V0BPZ2tqKd77znZWN/9nPfvZfDxyapPEHgBNFAAAA o6/+54jI3//9339/r9f77Bxr2udlL3tZXLt2rarhx3rjG98YGxsblY3/4Q9/+KMxfAHAcYsBAsCJ kKouAADmJJU8Tn0/xcBPq+93KyJa999//wdWVlbumVvFAz760Y/Gt37rt0avV7bWXXWuXLkSH/rQ h2J5ebmS8Xu93hfPnDnzjM9//vO7EdGNiN5jv28+7v/Jfb8FAwCcKGYAAHBSTNrYDWsK84MPPvir 0y3pcO666654+ctfXmUJBxRFEe9973sra/4jIh588MFf+fznP9+Ng1f9h/0AwIkkAACAxw02//sa xl/8xV/8iblXNOC9731v3HHHHVWXccvb3va2eMlLXlJpDZ/5zGd+tu+pJh8AhhAAAHASTbIS/IGr yW9961v/Tc75czOtbIyVlZX43u/93jh9+nSVZURExL333hvf+Z3fWXUZ8TM/8zO/FOOv+g/bGcD0 fwBODGsAAHCSDK4DkPqO3bz3/+Z6AINrABQR0fr0pz/9t9fX14VlFgAAACAASURBVKu95B3/f3v3 FitZetaN/a3uHsyM/cUY3wQTHIOFjBVxA8KAkBAiChiEnARDYilfEhD6UOyLBCTy3fJJTj4pUkSk iEhYDMbGtsAMZmzjmW48FrZhDB6PhznQZsbjnp6ZnlP3PlbVPtRprfXmwr23a9deqw67q9ah9u8n lar2qsN62jfj57+e910hfOtb3wrvf//7Q7vdruT873rXu8K9995b6eh/CCEMh8Nvve51r/svw3fW /I/vATC5/n987b8AAIBzxwQAAOddUQOYu4v8c8899xelVDXDD//wD4c/+7M/Cz/wAz9Q+rl/+Zd/ OXzkIx+pvPkPIYRbt279TZjv6v+s5l7zD8DaEwAAcJ7NbPgnH7/yK7/yUIyxW16Jxd7ylreEe++9 N/zYj/1YKee7ePFieP/73x/+4A/+IFy8eLGUc87yxS9+8XIovqo/q/HX9ANwrlgCAMB5MutWgPPc DvDCq6+++v+94Q1v+K/LKnqWGGP46Ec/Gj784Q+Hw8PDlZzjB3/wB8MHP/jB8BM/8RMr+f2z6PV6 j91zzz3/bTg9+j/r9n8h5O8LAABrzQQAAOfJrHH/o9dTH1euXPnDVquVrbjWubVarfAbv/Eb4b77 7gu/+Iu/GO66666l/fab3/zm8Lu/+7vhc5/7XK2a/xBC+Na3vvVnoXjUf5G1/pp/AM4FEwAAnDd5 GwGOvx6/+t8KJycAjicBtre3v3DXXXe9o6yiF/Hqq6+Gj3/84+ELX/hC2NnZOdNv/MiP/Ej41V/9 1fC+972vFmv9J6VpuvMzP/MzP/XII48chuLN/9Jw8sr/tLsCAMDaEwAAcN6cZRnAqQDg8ccf/x/e /va3/19lFX0WaZqGr371q+GRRx4JV69eDa+99lrY3t4OWXZyeOGuu+4Kb3nLW8Lb3va28OM//uPh 537u58I73lHLbOPYSy+99P+89a1v/YNweuzf+D8AFBAAAHDe5AUAIXzniv88ewFcCCFc3N3d/aeL Fy/+Z2UUvSz9fj90u92Qpmm4ePFieNOb3hTe+MY31mZTv3lkWXbwW7/1Wz/9kY98ZCfMDgDyJgBC EAAAcA4JAAA4j2ZNAVwIp0OAUwHA008//e++//u///fLKnqZ7rnnnkY1/eNu3rz5R9/3fd/3H0N+ 458XABTtERByXgPA2rIJIACclreR3OTV5Oyd73znvWmavlhNiedTmqZbH/jAB/7fcLK5z2v0x2n+ ASAIAAA4n/IawJm7/4echvP69ev/d0k1E0K4cePGH91///17YfbmfkVhAACcW5YAAHBeTf43cHIj wLn3Atje3r5y1113/Rcl1b0UTVwCMBwOn/3RH/3RX3r22WcHoXjX/6J1/3b/B+DcMwEAwHlV1Pzl NYlTlwLcd999HwghDFZXKiGE7MqVK//7s88+Owz5Tf60ht8kAAAEEwAAnG/z3BJwntsCXrhx48b/ 8T3f8z2/UU7Zd65pEwA7Ozt/8eY3v/nfh9O7/k9OAUyGNCFM3xsAAM4NEwAA8G1FewHkHZtsMrOf /Mmf/A9JklwrteJzYjgcPvdrv/Zr/yGM/e8d5rvyH0Lx1X/NPwDnjgAAgPNsniZw1maAWQghvvba a6MHHnjgAyGE4YpqPZdijMnnP//53/viF794EE5f5Z+2CWAImnwAOMESAACYbynAhTB9U8ALIYSL zzzzzP/6lre85d+XVPeZNWUJwPPPP/8ff+iHfuiPwslR//GR//HHtFsCCgYAOPcEAABQfEeAo9cX wvT9AE4EAa+99tofvf71r/+VEuo+syYEAN1u9/Ib3/jG/yXkr/efDAHylgSEnOfJ1wBwblgCAACz 14hPG/8/dRX6F37hF/63NE3tB3AHBoPBs7/92799tOnf5Mj/PLf4C0HzDwAn1Dv6B4DyFC0DKPrc 5BKB4/c3NjbSbrf7uZ//+Z//by5cuPBvll/qnbvrrrvChQv1vA6QJMnLv//7v//ff+hDH9oO86/7 n2cfAM0/AOeaAAAAvi1vGcDR86LhQPj617/ee8c73vH373znO9/barW+a3llLkddA4Asy9of//jH /8ff+73fezEUX/2fFQSEUDwNAADnlj0AAOA7ZoUA82wKeGJPgM9+9rM/9bM/+7MfvXDhwutXX/78 6rgHQJZlh5/+9Kf/7Xvf+97Hwul1/nkb/01bDhCCq/8AcEL9on8AqM60q8Z5ewAU7QdwfOw973nP Iw899ND7Qgjd1ZbebFmWHT700EP/7r3vfe8/h5P/+y4y9j9tAgAAzj0BAACcNG1DwKLNAIs2CIwh hOzXf/3Xn7j//vvfl2XZ9oprb6Q0TXc/9alP/dt3v/vd/ximhClhvtH/PMIAAAj2AACAIkXr/vM2 /pv5/U9/+tObFy9e/NxP//RP/8KFCxfeuMQ6z6QuewAMh8OX//iP//h/+s3f/M1vhNNj/UUN/+St /o64+g8AUwgAACBf0X4A0z6fe1eAo+d/+Id/2L927dr9v/RLv/RTly5d+r4l1XkmdQgADg4OHv+d 3/md//mDH/zgS+F0cz/Z+E82/fPs+p/3NwCcWzYBBIBi03b/z9sUcHxjwIthYkPAo+fXve51l559 9tn/83u/93v/uxhjJf8trnoTwOFw+Nq73vWu/+rJJ5/shZOb/M2z8V9RIDD+PPkaAM49AQAATDdv CFB0V4CLYSIAOHre2dl5+NKlS//pqv8BeaoOAA4PD598/etf/95wstnPCwEWWf+v+QeAKapf/AcA 9ZbXVBZtFFj0yG1csyw7WFHNtZemaScU31EhbzNFu/4DwB26VHUBANAwMXz7Sn9ew3l0fFoQcPyZ GON+GQXXUZIkRwHAPGv+Z+3678o/AMxBAAAAsx01/UXvTb4ubPrHH1mW7a2k2gYYjUbdUDwpUdT8 T9LsA8ACLAEAgPnMsxRg2nj6qeNpmnZXVWzdjUaj8SUAZ32EIAQAgLkJAADgbCYDgVkN/6n3bo/B n0uDweAoAAhhec2+MAAAphAAAMD85hlDLwoGTj2Gw6EAYHZQMut1yHkNAOQQAADA8uU1qaea2MFg sFN2YXWxv79/tPwhb0O/eRp7DT8ALEgAAACLmbXp3zxj7SGEEAaDwfaqi62rvb29dphvWiLvvUnC AACYgwAAAJYv7+r/0fPxY2tr69xOAGxvb09OALjSDwArJgAAgMVNG1Gf1vwfPccQQtze3t5cTXn1 98orr7RzDhdOS+R8Lu81ADCFAAAAlmdaw3pqbfvVq1dvrb6kevrnf/7nyU0Ap5n3cwDAFK2qCwCA BmvlPB89Low9XwghXBx7vhhCuPjWt771u69evXotVPDf43vuuSdcvHix7NMeyd70pje9vd1uj0II 6dgjG3sef0y7HaBQAADmZAIAAO7cmW4PeOPGjWEIYbiyqmoqy7K9drud5bylmQeAFRIAAMByFe1s H0LOMoAYY6+swuoiTdPu7E8BAMsmAACA5Zs2ETAZChyWUlGNZFl2tP4/zyLr/U0MAMACBAAAsDx5 a9On3jEgSZKD1ZZUP2madm6/nGfzPwBgSQQAALA6haP/R3/HGPfLLqpqo9FofAmAJh8ASiIAAICz O0vzeuI7WZbtLamWxpgIAEIQAgBAKQQAAFCeU0sAbq+HP1dGo9G5+zcDQB0IAABgORa9ih1DyL0a vvaGw6EAAAAqIAAAgNXK29X++PVoNGqXXlHF+v3+uQs9AKAOBAAAsFyzbmF34r3hcLiz2nLq5/Dw 0AQAAFRAAAAAqzHXkoBer3fuAoC9vb28AMBGgACwYgIAAFidmU3t3t7eVhmF1Mn29rYJAACogAAA AMpzKhC4devWdhWFVOm1116zBwAAVEAAAAAVevzxx29VXUPZnnnmmaKNDy0DAIAVEgAAQIU+/OEP 74Tz1fjGy5cvd8PZ/83n6X8rAFgqAQAAVOjmzZujEMKw6jrKkmVZ79q1a8ntP6feIhEAWC4BAABU LMuyXtU1lCXLsnnW/wsBAGAFBAAAULEY42EF5yz7lCGEENI07YT8Bn/yWBx7npwSAADOQAAAABXL suyg6hrKcjsACGG+8f9pTb9AAAAWJAAAgIplWbZfdQ1lSZKkk3NYMw8AJRAAAEDFYozzrItfC0mS HN0BoOjqv3F/AFgRAQAAVCxN03MTAIxGo8kJgPGGX+MPACskAACAihWMxa+l4XB4tAngtAmAEObb KBAAWIAAAAAq1u/3Sw8AWq1W2acMIZgAAIAqCQAAoGJpmu5UXUNZer3e5ARAXvNvPwAAWAEBAABU bG9vb7fqGspyeHjYDtNv92f0HwBWRAAAABXrdrtbVddQlna7fbQEYNo+AJOvAYAlEAAAQMVu3ry5 XXUNZdna2jpaAjBuWhCQRzgAAGcgAACAij355JMbVddQlmvXrs2aADARAAArIgAAgOrEEEL46Ec/ uhNKbnBjrKaf/tKXvtTOOWyzPwAoQTX3AAKA9dHKed0ae1yYeFy8/Rh/fbHb7X4zhPDdJdUc7r77 7nDp0qWyThdCCCHGOLhw4cLbQwjp7Uc28froEceep90lAABYgAkAAKiBGGOv6hpWLcuy7sShoiv/ GnwAWAEBAADUQJqmax8ApGk6GQAAACUSAABADcQYD6quYdVijO2Qf9U/hvxNAXN/ZgWlAcC5IAAA gPKdamKzLNuvopAyJUnSGftTIw8AJRMAAEANZFm2V+b5Wq3y9wFOkiRvDwAAoCQCAAAoR95u9sdy muO1MzEBsAhBAQAsgQAAAFZvZgN7B81xYwyHw7X/NwJAnQkAAKA8k/eyP370+/12NSWVZzgcrv2U AwDUmQAAAO7MWXatP3UsTdOd5ZRTX71eL28CwHg/AJREAAAAy3PmZnZvb293mYXU0eHhoSUAAFAh AQAAlCt3GUCn09kqtYhY/oX3TqcjAACACgkAAGB18pr9ydchhBBu3bq1WVZRVdna2rIHAABUSAAA AKsx2fwXvY4hhPjEE0+sfQDw0ksvrf1GhwBQZwIAAFi+ooZ//NiJ45/4xCe2Cz67Nr72ta9ZAgAA FWpVXQAArIlWzvPR48LY88Wc54shhIudTufZVqv13WUUe/fdd4dLly6VcaojyT333PP2Xq+XhBDS iUc28Yg5jyNrHZIAwCqZAACA5Zp1279Y8LkYQjhcSUU1kGXZXq/X07wDQIUEAABQvtwr3Gma9soq oNUqdwgwTVMbAAJAxQQAALA6uRv+FXwuhhD2yyiqClmWWf8PABUTAADAahSN+h8dOxUIpGl6UEJd lUiSRAAAABUTAADA6k0LA46Oxxjj2o7Jp2kqAACAigkAAKAc4yFA3uu1Xic/Go3W9t8GAE0hAACA 5Vh0h/tTn1/nMfnRaLS2/zYAaAoBAAAs3yJhwPFeAEmS7K6ontMnjeXeka/f75sAAICKCQAAoDyT G/+d6MIPDw/bpVdUkuFwaAIAAComAACA1Sm67V/IOz4YDLZWW0519vf3TQAAQMUEAACwenPN27fb 7e1VF1KVbrfbCYvvkwAALJEAAACWZ1qDO+u9ePPmzc0l11MbOzs7RxMAQgAAqIgAAABq4vHHH1/b AOCVV14Z3wNACAAAFRAAAEC1jpvhP/mTP9kOIWRlnLTVapVxmmP/8i//YhNAAKiYAAAAamJnZyeL MQ6rrmMF4mc/+1mbAAJAxQQAAFAvh1UXsGxZlh3cunUrnTgcJ15bFgAAKyYAAIAaybJsHQOAoqv/ k01/HHsWCgDAkgkAAKA6pxrcLMsOqihkldI0tf4fAGpAAAAANRJj3K+6hmW7HQAUXdWf9TcAsCQC AACokSRJ9so4T4zl9dlJkkxOABjvB4AKCAAAoEbSNF273fKTJOmG/IY/TjzPIjQAgDsgAACAGsm5 Wt54o9Ho6N80bXM/zT0ArJgAAABqJE3T3aprWLbhcJgXauRd/RcCAMAKCQAAoEYODw/bVdewbIPB 4GgJwOQEwDxLAIQCALAkAgAAqJF+v79ddQ3L1u/380KNouZfww8AKyIAAIAa2dnZ2am6hmXb39+f vA3grPF/IQAArIAAAABq5NVXX92ouoZl293dPQoAxuU1/EIAAFghAQAA1Mhjjz22WXUNy7a5uTnt LgBuAQgAJREAAECNfOxjH9sNIWRV17FM165da4f8CYBZQYCmHwCWSAAAADXSbrezEMKg6jqW6cqV K7MmAIz+A0AJBAAAUDMxxl7VNSxLjLH/6KOPDsLsCQAAYMUEAABQM1mWHVZdw7JkWdYd+3NW0190 a0AAYAkEAABQM1mWHVRdw7KkadrJOWy9PwBUQAAAADWTZdl+1TUsy+0AYNra/3mWAggHAGAJBAAA UDNpmu5VXcOy5EwAaOYBoCICAAAo39QmOE3T7rT3m6RgCQAAUAEBAACUa+a4e5Ika9M0F/xb5pkC MCkAAEsmAACA8ky73/3xWvjBYNAuraIVGw6HR3sAAAAVEwAAQPVONMj9fn+3qkKWbTAYHC1nEAIA QMUEAABQrVON8f7+/k4VhazCcDhcdJpBUAAAKyIAAICa2dvb26q6hmU5ODgo2s+g6NaAAMCKCAAA YDUW3ejuuCF+5ZVX1iYAaLfb4wGABh8AKiQAAIDyTb3y/dhjj22WW87qbG1trc0tDQGg6QQAALBc eVe5xxv+vN3/T/jEJz6xE0LIllxXJZ5//vm1uaUhADSdAAAAVmva2Pt4KHD8aLfbWZZlg5VXVoKv fOUrAgAAqIlW1QUAwBpq5TwfPS7cfrRCCBdvv7448bjQbrefuHDhwveuqsC77747XLp0aVU/H0II IcaYXLhw4QdDCOnYI5t4nYXvhB9Hr0OwOSAALJ0JAAAoX94ygBO74scYD8suatmyLLP+HwBqRAAA AKtTtB/AtPdDCCGmaXqwgnpKlWWZ8X8AqBEBAABUI3f9/9HxLMv2K6praZIkMQEAADUiAACAcuTd CWDaHQMa3zynaWoCAABqRAAAAKs3604AJ67+hxBCkiSNb55NAABAvQgAAKBc067+Hx2Po9FoHQKA xv8bAGCdCAAAoHxT1/+HEMJoNGpXUNdSDYdDAQAA1IgAAACW707uYX80AbCzxHoqMRwOLQEAgBoR AABANSaDgRMTAN1ut/EBQL/fNwEAADUiAACAcpxo8CeOnZoS2Nvb2yqjqFU6ODgQAABAjQgAAKBc s5YExBBCvHnz5mYZxaxSt9sVAABAjQgAAKB80+4AEEII4dFHH218ALC9vW0PAACoEQEAAKzGWTb/ O/axj31sN8aYLbGe0r300ksmAACgRgQAAFCNwvX/IYSws7OThRD6pVa0ZE888YQAAABqRAAAADUV Y+xVXcMdyD7zmc/sVV0EAPAdAgAAqF7uFECM8bDsQpYly7L9TqfT6CUMALBuBAAAUE8xxrhfdRFn lWVZ0QaAi+6NAAAsiQAAAOonhvDtq+hVF3JWaZouuv5fMAAAKyYAAICaijE2dg39aDRa5BaAmn8A KIEAAADq5bgZXrCJrpUzTAAAACsmAACAmhqNRo1tom+HF0VX9l3xB4AKCAAAoKZGo1G76hrOaiy8 iGMPAKBCAgAAqKnBYLBTdQ1nNRwO86YXhAAAUCEBAADU1P7+fmMDgH6/P2v/AmEAAJRMAAAANbWz s7NVdQ1ndXh42An5Tf6ijb+gAACWRAAAADX10ksvNTYA2Nvbm7YHQJx4BgBKIAAAgJp67LHHNquu 4ay63e68ewAsY0oAAJiDAAAAaupDH/rQbgghq7qOs3j11VePlgBMTgBo7gGgIgIAAKivGGPsV13E WXzzm9/Mu4XheAiQtyQAAFghAQAA1FiMsVd1DWfx+c9/vhtmTwAIAQCgRAIAAKixLMsOq65hUTHG w6tXrw7z3ppxTAgAACskAACAetuvuoBFZVnWvf0ybwIg5PxdRCAAAEskAACAGkvTtHEBQJqm4xsA jptn7b+mHwBWRAAAADWWZdle1TUs6nYAcCRvAmCSph8ASiAAAIAaS5KkO/tT9TLHBMC8SwAAgCUS AABAjSVJ0pn9qXqZCC1mNfx5dwcAAFZAAAAANTYYDNpV17Co0Wh0NAFQRNMPABUQAABAfZxqiHu9 3m4VhdyJ4XB4NLUwbfd/zT8AlEwAAAA1dnh4uFN1DYu6PQEw7ixr/gUEALBkAgAAqLGdnZ2tqmtY VK/XK9oEcBZNPwCskAAAAOoht/l98cUXN8su5E7t7+9P3gYQAKgBAQAArN5ZroTHEEL82te+1rgJ gL29vaKNC4vuCCAkAIASCAAAoFp5G+Ud+8hHPtJutVppuSXdmY2Nje7EoXnuCAAArJgAAADKNW0n /LxmOKZpOlhtScv13HPPTW4CWETzDwAlEgAAQHkWaXjHx+V7Sy8krq73/vKXvzxPAKD5B4CSCQAA YHUWGX0fnwo48V6M8WCZRa1SjHH40EMP5QUWGn4AqJgAAACqN21JQEzTtDEBQJZle1XXAADkEwAA QLUmm/+8nfIb01SnaTrv+n8AoGQCAACozqxNAGMIISZJ0rQAwLg/ANSQAAAAyjHvfgCnJgDSNJ28 rV5tmQAAgPoSAABA+fJuBZh7C8Dw7QmApTfVrVZr2T8ZQgghyzIBAADUlAAAAMo1axLg1ATAcDjc XXVRyzIajQQAAFBTAgAAqE7hrf/GjsVerycAAADumAAAAFZr1oZ4U9f/hxBCv9/fXnZRqzIYDBqz XwEAnDcCAAAozyK74x+HAZ1OZ2tF9Sxdv983AQAANSUAAIBqTLvyfyIouH79+mZZRd2pg4MDAQAA 1JQAAADKN2vn/xN/f/WrX7219ALiIsMI8+t2uwIAAKgpAQAA1NPxRMCf/umfdmOMacX1zGVra8se AABQUwIAAKjWXFMAIYR+CbXcsRs3bpgAAICaEgAAwOrNcyeA3DsAHL0fY+wtvaoV+PrXvy4AAICa EgAAQH2NBwIHVRYyp/T+++/fr7oIACCfAAAAGiBN09oHAFmW7fX7/dXsLggA3DEBAADU04lGOsa4 1CvrrVZrmT8XQgghTdPxDQAFAQBQMwIAACjXmRrjJElqv7v+RAAQghAAAGpFAAAADZBlWe0310uS pPY1AsB5JgAAgAZoQnOdMwEAANSIAAAA6ufU6PxgMGhXUcgiRqNR7UMKADjPBAAA0AD9fn+n6hpm KQgA7AMAADUhAACABtjf319qABDj8vvy4XBoCQAA1JgAAAAaoNPpbFddwyz9fr9oCUCceAYAKiAA AIAGeP7557eqrmGWg4ODTpjd5AsBAKAiAgAAaIB//Md/3Ki6hln29vaOJgDi2COMHct7DQCURAAA AA3wsY99rBtCSKquY5qdnZ28PQDO0uwLCABgBQQAANAMMcuyQdVFTHPz5s12OHvzrukHgBUTAABA c/SW9UOtVmtZP3XsqaeeOpoAmFwCoLkHgBoQAABAQ8QYD6quYYr44IMP5t0FYDwEsA8AAFRIAAAA DZGmaW0DgCzLDm/cuJGEk1f/8yYAhAAAUBEBAAA0RJqm+1XXUCTLsm7Ib+jzJgCEAABQAQEAADRH 3i77tZCmad4tAN0BAABqRAAAAA0xGo3qHgDkNf3zrP3X9ANACQQAANAQSZLkbbJ3JjEut+eeqC1v AiAvGAAASiQAAICGGAwG7aprKJJl2TwTAJp+AKiQAAAAGmIwGOxUXUOR0Wg0awIgTLwfprwPAKyA AAAAmiF2Op3aBgDD4bBoAiAEUwAAUAsCAACovxhCCO12e7vqQooMBoPxDQrd8g8AakgAAAD1dtw0 X79+favKQqbp9/vtcOcb/QkIAGCFBAAA0BAPP/zwxrJ+q9VqLeunQggh7O/vH+0BMG3tfx5NPwCU RAAAAPUx9dZ59913314IISm1ojl1Op3uxKHxJQCzbgkIAJRAAAAA9TBPUxxjjP2VV3IGm5ubebco nPZvEgIAQMkEAABQjXlvlXfyYIy9lVV0B5577rm8PQAmLbo8AABYIgEAAFRv3s3zYpZlh6su5iw+ //nPj+8BcBaCAQBYMQEAANTbiUmBLMsOqi3ntBjj4OGHHx5UXQcAMJ0AAADKMe8V7qmb5aVpur+U YuLyLrhnWVa0ASAAUCMCAACop7xlATHGONlsVy5N087sTwEAVRMAAEB9xJznExvnjUYjAQAAcCYC AAAoX96I/KyNAGMIISZJUrtmWwAAAM0gAACA6hWt+z81ATAcDttlFTWvJEnyphLsAwAANSMAAIBq 5TX/RRMCcTgcbq++pMWMRiMTAADQAAIAAKjOtKvkMeRMAHQ6HQEAAHAmAgAAKM+shv/oOXf9fwgh 7u7ubq2isDsxGAxqtzEhAHCaAAAAqjFrjfypq/8hhHDr1q2NlVV0Rr1ezwQAADSAAAAA6qMoFDgO Ax566KHNEuuZy8HBgQAAABpAAAAA1Zu28/+JUOCTn/zkXgghKamuuXQ6HQEAADSAAAAAqjVr5//x 1zGEEGOM/ZVXtYCdnR0BAAA0gAAAAOqj8PZ/Jw7E2CunnPm88MILAgAAaAABAADUT96dAI6PxxgP Sq5nqq9+9asCAABoAAEAAJRrnt3/p77Osqw2AUCMMb18+fJh1XUAALMJAACg/k6EBmma7lVVyKQY Y7ff788KNQCAGhAAAEB15mmcT30mxlibACBJkm7VNQAA8xEAAEDDpGlamzX3daoFAJhOAAAAzRJH o1G76iKOCAAAoDkEAABQvXnX0McQQhgMBrUJACwBAIDmEAAAQD3MvZHeYDDYXWUhi0iSxAQAADSE AAAA6ieOPcaPhRBCODw83C69ogKj0WhWAOAOAQBQEwIAAGiYzc3NzaprODIYDLphdpMvBACAGhAA AEDDvPbaa7UJAPr9/tEEgBAAAGpOAAAADXPlypXaBAAHBwfjSwAKly0AANUTAABAw3zqU586iDEm VdcRQgh7e3s2AQSAhhAAAEDzxBhjv+oiQghhe3s77zaAkWvFfwAAGEtJREFUrvwDQA0JAACgmQ6r LiCEEF5++eWiCQAhAADUjAAAABooxliLAOCpp57qhPzbFs5DSAAAJRIAAEADZVl2UHUNIYTsgQce 2Js4NrkJoCYfAGpCAAAADZSm6WTjXbosyw5u3bqVhNNNftHfRYGAkAAASiAAAIAGSpKkDgHA+AaA k8sApoUCGn4AqIAAAAAaKMuyym+/l6bp+Pr/cUUhAABQIQEAADTQcDisSwBwpGgCQAgAADUhAACA BhoOh7tV15AkyawJgKK/i44BACskAACABhoMBnUIAKbtARCCJh8AakUAAAANtLe3t1N1DaPRaHwC YNY+AG4JCAAVEwAAQANtbGxsV13D7QBgXFEYMPkZAKACAgAAaKBXXnlls+oaBoPBrAkAGwECQI0I AACg/k410A8++OBGFYWM6/V680wAaP4BoCYEAADQQJcvXz5otVqjKms4ODhoh7Ot7RcQAEAFBAAA UB8LNdNZlvVXWMtM7XY77y4A0/4GACokAACAhoox9qo8/8bGRjvn8LQQQwgAABUSAABAvRU201mW HZZayYRnnnlmfBPAaTT+AFADAgAAaI4Tm+xlWXZQZTEPPvjg+ASAq/4AUHMCAABohlONdJZle1UU EsK3lx888cQTk5sQ3slmgADAigkAAKChkiSpLADIsqw75e282wECABUTAABAfcWJ5xPvZVnWKbOY cWmaFp1b0w8ANSUAAIDyzdMk5zX/J66sD4fDvF34SzElAAAAakoAAAD1k3vFf/JADQIAV/sBoEEE AABQrUWmAY5exxBC7PV6O6spabYkSY72ABACAEBDCAAAoF7ymv3J1yGEELrdbmUBwGg0Gl8CIAQA gAYQAABAfUw2/0WvYwghttvtzVKqypEkSWXLDwCAsxEAAEA9zLqKfmoC4MUXX6wsABgMBtNuAwgA 1JAAAACqMa3hLxz7HzsWH3zwwY1VFDaPXq/nLgAA0DACAACo3jxX/0997sqVKwchhNFKKprh4OBA AAAADSMAAIB6yW32w+mpgKO/e2UUNanT6VgCAAANIwAAgPqabPZPhQJZllUSAGxsbJgAAICGEQAA QH0UNfqT7x2HAlmWHZZQ1ynXr18XAABAwwgAAKCe8sKAvGUB++WUc9LDDz8sAACAhhEAAEB9Fd0N 4Pjv0WhUegAQYxxduXKlkskDAODsBAAAUJ1Zu//P853SN+PLsmyv7HMCAHdOAAAAzXFqCUCSJKWP 4qdpavwfABpIAAAA9bDoNEAMIYQkSdorqGUqAQAANJMAAADqbfJWgGH89XA43C27IAEAADSTAAAA 6mWy2c97/9hgMNhZbTmnJUlS+r4DAMCdEwAAQD3NtSSg3W5XEQCYAACABhIAAEB9zQwBdnd3t8oo ZNxwOBQAAEADCQAAoDlOBQLXr1+vIgCwBAAAGkgAAAAN9rd/+7cbZZ+z1+vlTQAsehcDAKBkAgAA aLAHH3zwMIQwKvOc+/v7JgAAoIEEAADQbDHG2DvDl858wk6nYw8AAGggAQAANFyM8bDM8+3u7goA AKCBBAAA0HBlBwA3btwoCgDmGSuwVwAAVEQAAAANF2PcL/N8jz/+eCd8u5E/epwop8xaAID5CQAA oOGSJCkzAMg+97nPTZ5PCAAADSAAAICGizGWtit/lmX7nU4nzSuj4O+iSQEAoGQCAABouNFotHAA 0Gq1znSuNE2P1v8b/weAhhEAAEDDjUajdlnnyrJscgPAaVf3pwUCwgIAKJkAAAAarswA4PYEwLSr /xp7AKgpAQAANFy/398p61xJkowvN5hc3y8EAIAaEwAAQMPt7OyUGQDMmgAo+hsAqJgAAAAart1u b5V1rtFoNL4HQN4O/9b9A0BNCQAAoOGuXbu2ueh3YjxbLz4YDLqh+NZ+eUsBNP0AUBMCAABouAce eGDhAOCshsPh5IaDRWHA5GcAgIoJAACguWIIIXzxi1/sxRhHZZyw1+uN7wGQNwFgI0AAqCkBAAA0 04kGO8bYK+OkBwcH80wAzGr+hQMAUAEBAACsgbICgN3d3Wl7AISCY9OOAwAlEQAAwBqIMR6WcZ5X X321M3EohulLAgCAmhAAAMAaiDHuLfL5Vqt1pvM888wz7TDf7v72AgCAmhEAAEDznGqqR6PRQRnn feCBB8YnADT3ANAgAgAAWANZlnVXfY4Y4+HTTz+dTB7O++iqawEAFicAAIBmmDpSn2XZ5Nr8pbsd Mky7/d8iSwMAgJIJAACg/mY2zf1+f+UBQJqmxv8BoMEEAADQHHHi9fFjOBzurvrkEwEAANAwAgAA qNZZRuZPHev3+wsFADEufgE/JwAwBQAADSIAAID6OHNDvb+/v7XMQvIkSXLWjQYFBQBQAwIAAGiW 3GUAm5ub26s+8Wg0sgQAABpMAAAA9ZXX7E++DiGE8Nxzz22supjhcLjyWw0CAKsjAACAepps/ote xxBC/MxnPrPyJQCj0aidc9h4PwA0hAAAAOqnqOEfP3bi+Fe+8pXDGONwlUX1ej1LAACgwQQAAFC9 ea6in2r6x47FEEKIMfbnPWGr1Zq7uCP7+/sCAABoMAEAANTLrNv+xYLPxRDC4Uoquq3T6dgDAAAa TAAAAM0Tcx4hy7KVBgC3bt0yAQAADSYAAID6yt3wr+BzMca4v8pirl27JgAAgAYTAABAPRWN+h8d OxUIpGm60gDg7/7u7wQAANBgAgAAqL9pYcDR8Zim6coa9Bjj8O///u/n3mQQAKgfAQAANMN4CJD3 OmRZNncAEOM8Nx74jizLbAAIAA0nAACAelisI8/5fJIk7SXVcsoqpwsAgHIIAACgfhYJA473Auj3 +7srqkcAAABrQAAAAM0xufHfiaBAAAAATCMAAID6KrrtX8g73u12t1dVSJIk9gAAgIYTAABA/c21 JGBnZ2drVQWMRiMTAADQcAIAAKiPaY3+rPfi9evXN+c9UavVmruoEAQAALAOBAAAsCY+85nPzB0A LGowGFgCAAANJwAAgGY7ngz40pe+1AshDFdxkn6/bwIAABpOAAAAayTG2FvF7x4cHAgAAKDhBAAA sEbSNF1JANDpdCwBAICGEwAAwHo5WMWPbm1tmQAAgIYTAABAc526M0CapnMFADHOdWfBYy+88EIn 73wAQHMIAABgjcQY91bxu48++ujRBIAQAAAaSgAAAGskSZJVBADpAw88MD5ZIAQAgAYSAADAGsmy bOlr9bMs2+v3+5p+AGg4AQAArJHBYNBe9m8mSZJ3B4A48VpAAAA1JwAAgDUyHA53l/2bC0wVCAEA oMYEAACwRg4PD3fm+Vyr1Zr7N5MkKQoAihr+GEwFAEDtCAAAYI3s7+/PFQAsIk3Tbpje7E/7GwCo CQEAAKyRjY2NrWX/5mg0Gr8FoCv7ANBQAgAAWCPf/OY3N5f9m2MBwLjJTQDnITgAgAoJAABgjfzN 3/zN0gOAwWBwtATAuD8ANJgAAADWyCOPPDIIIQyX+Zv9fn98AmByGcDkMwBQUwIAAFgzMcbeHJ+Z +/cODw87Yb4JgLwfFQwAQE0IAABgzWRZdrjM3+t2u9MmAMKU1wBAjQgAAKB5pjbZMcalBgCdTqdo AmC8FiEAANScAAAAmmVWcx1jjPvLPOHLL79cNAEwrRYhAADUjAAAAJpjZvMfQghJkiw1APjGN77R DsVNf96GgIW1AQDVEQAAQDNNjtwf/52maXeZ57l8+fLk780zARDmeB8AKJEAAADWzGg0WloAkGXZ 4QsvvJCE2U2/Zh8Aak4AAADNdqrxTpKkvawfz7LsaAPAvHPOuiMAAFAjAgAAaK7cZns4HO4u6wRp mh5tADhPoz/PXgAAQEUEAABQT4s20cdX4/f393eWVcRYADB5nrzzAwA1JgAAgOaZejV+mQHA2BKA oqZf4w8ADSEAAIB6mdVoF63HP/57c3Nzc1nFjEaj8QmAotDB3QAAoAEEAABQb9Ma7dzN+J555plV BQB5NQAADSEAAIBmKpwIuHz58mbO8TMpuKXgPL8tKACAmhEAAEDzTDb/JyYA/umf/mkQQhgu40TD 4bAdNPMAsBYEAABQX/Pstp/3d8yyrL+MAnq93vhtAAGABhMAAEAzTe4NcGJH/lardbiMk+zv70/u AbBIXQBAjQgAAKAZ8u4EkHv1P4QQ0zQ9WMZJ2+123h4ARTT/AFBjAgAAqL9pjfWpq/8hhBBj3F/G iTc2NtoFdeSeFwCoLwEAADTL5MZ/k+8dTQDsLeNkzz777KJLAACAmhIAAEDzzLwSn2XZIqP7ha5c uSIAAIA1IQAAgPqZbPAX/W4cDod3HADEGPuPPvroUm4nCABUTwAAAM2Rd+U/9+80TcfX7p/JsqYI AIB6EAAAQDMUTQLk7gUwGo127vSEaZoa/weANSIAAIBmmbUkIIYQwuHhoQAAADhBAAAAzTNtGiCE EEKv19u+05MIAABgvQgAAKCezrL537Fbt25t3mkBSZLYAwAA1ogAAACaKff2f0eefvrpOw4ARqOR CQAAWCMCAABovlMhwCc/+cnNvOOLGA6HAgAAWCMCAABYQ0888cQwxji8k98YDoeWAADAGhEAAMD6 iSGEEGPs3cmP9Ho9EwAAsEYEAACwplqt1uGdfH9/f18AAABrRAAAAOvleN1/mqZ3FAB0u11LAABg jQgAAGBNxRj37+T7GxsbJgAAYI0IAABgTaVpuncn33/++ecFAACwRgQAALCm0jS9oxH+r3zlK5YA AMAaEQAAwJrKsqx91u/GGJPLly/nLSGIOccAgAYQAADAmhoMBmce4c+y7I6WDwAA9SMAAIA11e/3 d8/63TRNFwkPYjAZAAC1JwAAgDU1HA53zvrdBQMAAKABBAAAsKY6nc72Wb87FgDkXdl3tR8AGkgA AABr6rXXXjtzAJAkyfgdAIz4A8AaEAAAwJp69tlnN8/63SRJ8pYACAEAoMEEAACwpv7yL/9yK5yx aR8Oh/YAAIA1IwAAgDV19erVYYxxcJbvDofDbsgf/Y8TzwBAQwgAAGCNZVnWP8v3+v3++ATAZBCw SAggKACAmhAAAMB6OzzLlw4ODjqh+Or/rGMAQA0JAABgjWVZdnCW7+3t7R3dBaDo6v80QgEAqCEB AACssRjj/lm+t7Oz0w6nG/+Y8zoEDT8ANIIAAADWWJqmZwoAXn755aM9AKY1+0IAAGgQAQAArI9T TfhoNOrmfXCWp556atoEwNznBwDqQwAAAOsrZlnWmf2xU7K//uu/LtoDYPLYtKZfIAAANSIAAID1 FEMIYTAYLBwAZFl2sLu7m4X8EX9TAADQUAIAAFgPuevxh8Ph7qI/dHtqIG/Dv6LbAmr6AaABBAAA UH9nbrAHg8H2ot9J03R8A8DJGmKYbz8AAKBmBAAA0HyFu/F3Op2zBgDzTACEGe8BADUiAACAZpt2 K774yiuvLHsCYPy1ph8AGkQAAADNMTl+X9SAH3/m2rVrG4ueJEmS8Y0Di24FqPkHgIYRAADAesht zP/qr/5qe/LYLKPRaHwJwNFvLtrwCwgAoGYEAABQX9Oa6HluxxevXr06jDEOTr0Zi78+NgGgiQeA NSIAAIDmm7z6P3n1vrfIjw0Gg6IlAPPWAQDUkAAAAJqtqPk/HtvPsuxwkR88PDzMWwIw/psafQBo IAEAADTXqV3/c47HEMLBIj96eHjYLvj9ohoEAgDQAAIAAGiGWfsBFE4AJEmyUACwu7vbnfP8Gn8A aBABAAA0T9Ht+IqO5TX0hTY2NtqzP6X5B4CmEQAAQLPMs/v/0XMMIcThcLg3+aFWq1X4A08//fRZ NwEEAGpMAAAAzVW0Od+J5yzLOmEBly9fXujzAEAzCAAAoN7mveI/+ffxc5qmu3OfLMbe448/Pprj vABAwwgAAKA5ipryyZ34T4QAg8FgZ94TLDotAAA0hwAAAJqpaFf+UxsB9vv9uQOANE0FAACwpgQA ANA8ebv9F3620+lsz/vDAgAAWF8CAABYPycCgo2Njc1TH4j52YElAACwvgQAANBsk2v/T00HXL16 9VQAUCRJEgEAAKwpAQAA1N88dwIo3CDwvvvu25rjN0IIIYxGIwEAAKwpAQAArLlvfOMboxjjYJ7P jkaj7qrrAQCqIQAAgPUzebU/hhB683xxMBiYAACANSUAAID1dRwEpGl6OM8Xer2eAAAA1pQAAACa Za61/Dn2x/9otVr5H9rfFwAAwJoSAADAOZBl2cE8nxMAAMD6EgAAwDmQZdnePJ+7deuWAAAA1pQA AADOgSzL5mrsn3vuOQEAAKwpAQAAnANJkszV2H/5y18WAADAmhIAAMA5kCRJe9ZnYozDhx56qBfO vtEgAFBjAgAAOAcGg8Hu+N8xnu7xY4zdgq8LBABgDQgAAOAc6Pf727M+k6bp5Pi/xh8A1ogAAADO gXa7PTMAmHejQACgmQQAAHAO3Lx5c2vWZ+bdKBAAaCYBAACcA08++eTmrM+kaVq0BwAAsAYEAABw Dtx///3bIYRs2mdGo1EnTF/3b08AAGgwAQAArLcYQghPP/30KMuywdHBVqt16oO3A4AT35vyDAA0 jAAAANZTXqPem/aFwWBgCQAArDEBAACsl8Ir9DHGqQHAcDhsz/qNOd8HAGpIAAAA50SWZfvT3j84 OJjcA+CsY/8CAgCoIQEAAJwTMcapAUC32x1fArBo86/pB4CaEwAAwPqLIYSQJMnUAGB3d3faEoBY cBwAaAgBAACsj6kNeoyxM+39GzdujC8BiCF/CsDdAACgoQQAALC+TjTuSZJMDQCeeOKJ3bzvzfn7 AEDNCQAA4JxI07Q97e0///M/3w/5EwCTf88bEAAANSIAAID1UNSUH7/u9Xq7oUCWZfu9Xi8r+P4i Tb5AAABqSgAAAOsvhhDCYDDYKvxAjJMbAOZNAISQ3+Br+gGgAQQAAHA+xE6ns3P8RzzZs6dperQB 4Lyj/wBAwwgAAGA9nWrWb968WTgBMBYAHH132ui/WwICQAMJAACgmWKYr1E/dvXq1ZtFP5Zl2dEd AvKu/tsAEADWgAAAANbLZFN+3MB/4hOf2A0hZKe/EsJoNMqbAJj12wBAgwgAAGD95Dbq169fH4YQ Bnnvjd0i8E7uAAAA1JgAAADWx7Tx/RhCCFmW9fK+mCTJ5CaAZwkChAUAUGMCAABohmU01zGEcBBC CK1W68Qbo9GoXfD5eX4TAGgAAQAArIe8HfzzJgAO8r48GAzaeZ8veG1pAAA0kAAAAM6HGEKIMcb9 vDd7vd74JoAAwBoSAABA8+Tt9D/5nHs1P8bYzfvBbrfbLvhu0TkBgIYRAABAsxWFAeN/Hz+yLOvk /cjGxsbREoBZvz9vHQBAzQgAAKC5inbqL1zHP3a7vxOefvrpvAmAvPMAAA0lAACA9TI1FIgx7oZv vzjxnb/4i7/ImwBY9G8AoMYEAADQHEUNd9HY//jrGEKI/X5/59SXYzx86qmnkjD96v/kMwDQMJeq LgAAOJMYQmhN/H2kFU6HACGEEIfD4fapH4px8haAIZwOAibPDQA0jAkAAGi2aRv3Te7on41Go43J D2dZ1i74TgjTgwAAoEFMAABA800LAVrj73c6nVMBwMQEQMh5BgDWgAkAAGiWeXfnn7z6H0MI8eGH H74RYxyOf3A0Gn2r4PN5vzOrJgAAAGBJWmOPC7cfF28/LoUQ7gohfFcI4XUhhLtDCPeEEF4fQnhD COE/efHFF/94d3f3sYODg8u9Xu9D9957739++7033P7c3SGE7779/e+6/XuXbv/+0fnGawAAGuBi 1QUAAGfSynndynlMiu9+97tfuvvuuy/t7e3dfOGFF77wnve85+mQv/v/rCv/AECD2AMAAJpv/I4A M5v1d7/73d/4wz/8w1tve9vb/s2//uu/boX8sf+8cwAADWZsDwCaa9oUwPjrvImAyf8PMGvd/7SA QDgAAA1gAgAA1k/RRMD48cnPTz7nLQcoOhcA0AD2AACA5pps5ls5x4um/fLW988KAkLO3wBAQwgA AKDZ5gkB5lV01X/a3gAAQEMIAACg+WaFAIuEAYs0/QIBAGgQmwACQPPl/fd8keUA4/KWBEy+zvsb AKg5AQAArIdpIUDe+3l3ASj6W/MPAGtAAAAA62NWCFD0mXHTGv+iYwBAAwgAAGC9FP23fdH/5mv+ AWDNCAAAYP1M++/7IhMA8xwHABpCAAAA62sZ/53X+APAmhAAAMD6O+t/7zX/ALBGBAAAcD4s8t98 jT8AAAAAAAAAAAAAAAAAAAAAAAAAAAAAAAAAAAAAAAAAAAAAAAAAAAAAADX3/wMBor3vFj9OAQAA AABJRU5ErkJggg== "
     height="1024"
     width="1024" /></svg>